xof 0303txt 0032

Frame Root {
  FrameTransformMatrix {
     1.000000, 0.000000, 0.000000, 0.000000,
     0.000000,-0.000000,-1.000000, 0.000000,
     0.000000, 1.000000,-0.000000, 0.000000,
     0.000000, 0.000000, 0.000000, 1.000000;;
  }
  Frame _0_box_body_raw {
    FrameTransformMatrix {
       1.000000, 0.000000, 0.000000, 0.000000,
       0.000000, 1.000000, 0.000000, 0.000000,
       0.000000, 0.000000, 1.000000, 0.000000,
       0.000000, 0.000000, 0.000000, 1.000000;;
    }
    Mesh { // _0_box_body_raw mesh
      8;
      -3.669947;-0.472211;-0.809747;,
      -3.669947;-0.472211; 2.126948;,
      -3.669947; 0.510445;-0.809747;,
      -3.669947; 0.510445; 2.126948;,
       3.544104;-0.472211;-0.809747;,
       3.544104;-0.472211; 2.126948;,
       3.544104; 0.510445;-0.809747;,
       3.544104; 0.510445; 2.126948;;
      6;
      4;1,3,2,0;,
      4;3,7,6,2;,
      4;7,5,4,6;,
      4;5,1,0,4;,
      4;0,2,6,4;,
      4;5,7,3,1;;
      MeshNormals { // _0_box_body_raw normals
        6;
        -1.000000; 0.000000; 0.000000;,
         0.000000; 1.000000;-0.000000;,
         1.000000; 0.000000;-0.000000;,
         0.000000;-1.000000; 0.000000;,
        -0.000000; 0.000000;-1.000000;,
        -0.000000; 0.000000; 1.000000;;
        6;
        4;0,0,0,0;,
        4;1,1,1,1;,
        4;2,2,2,2;,
        4;3,3,3,3;,
        4;4,4,4,4;,
        4;5,5,5,5;;
      } // End of _0_box_body_raw normals
      MeshMaterialList { // _0_box_body_raw material list
        1;
        6;
        0,
        0,
        0,
        0,
        0,
        0;
        Material box_mat {
           0.800000; 0.800000; 0.800000; 1.000000;;
           96.078431;
           1.000000; 1.000000; 1.000000;;
           0.000000; 0.000000; 0.000000;;
          TextureFilename {"box0.png";}
        }
      } // End of _0_box_body_raw material list
    } // End of _0_box_body_raw mesh
  } // End of _0_box_body_raw
} // End of Root
