# Blender v2.76 (sub 0) OBJ File: 'aquarium.blend'
# www.blender.org
mtllib aquarium.mtl
o Plane
v -24.590960 1.078281 12.540949
v 22.349440 1.078281 12.540949
v -24.590960 37.380775 12.540949
v 22.349440 37.380775 12.540949
v -24.590960 37.380775 -12.262847
v 22.349440 37.380775 -12.262847
vn 0.000000 0.000000 -1.000000
vn 0.000000 -1.000000 0.000000
usemtl water_mat
s off
f 1//1 3//1 4//1 2//1
f 4//2 3//2 5//2 6//2
o aquarium_wall_mesh
v 22.349436 40.102406 12.532127
v 22.349436 0.002106 12.532123
v 22.776772 0.002106 12.532123
v 22.776772 40.102406 12.532127
v -25.068228 0.002106 12.532123
v -24.590960 0.002106 12.532120
v -24.590961 40.102406 12.532127
v -25.068228 40.102406 12.532127
v -25.068228 40.102406 -12.836606
v 22.776772 40.102406 -12.836606
v -24.590961 0.002110 -12.494799
v -24.590961 40.102406 -12.478900
v 22.349436 40.102406 -12.478900
v 22.349436 -0.002107 -12.478904
vt 0.885176 0.376740
vt 0.885176 0.016083
vt 0.894402 0.016084
vt 0.894399 0.376740
vt 0.111958 0.016083
vt 0.121868 0.016083
vt 0.121874 0.376740
vt 0.111966 0.376740
vt 0.341633 0.016075
vt 0.341638 0.376741
vt 0.664408 0.376741
vt 0.664408 0.016075
vt 0.664408 0.390256
vt 0.341644 0.390256
vt 0.885176 0.390258
vt 0.121874 0.390258
vn 0.000000 -0.000000 1.000000
vn 1.000000 0.000000 -0.000000
vn -1.000000 0.000000 0.000000
vn -0.000200 -0.000200 1.000000
vn 0.301500 0.904500 0.301500
vn -0.301600 0.904500 0.301500
vn 0.577400 0.577300 -0.577300
vn -0.577400 0.577300 -0.577300
vn -0.577300 0.577400 0.577400
vn 0.577400 0.577400 0.577300
usemtl lambert2SG
s off
f 7/1/3 8/2/3 9/3/3 10/4/3
f 11/5/3 12/6/3 13/7/3 14/8/3
f 13/7/4 12/6/4 17/9/4 18/10/4
f 8/2/5 7/1/5 19/11/5 20/12/5
f 19/11/6 18/10/6 17/9/6 20/12/6
s 1
f 18/10/7 19/11/8 16/13/9 15/14/10
f 7/1/11 10/15/12 16/13/9 19/11/8
f 14/16/11 13/7/12 18/10/7 15/14/10
o stone2_stone.002
v -8.345264 1.525598 3.053839
v -8.626703 1.546769 2.943942
v -8.629196 1.385634 3.147796
v -8.224126 1.387741 3.261721
v -9.020690 1.550060 2.759993
v -9.210118 1.366724 3.009245
v -9.113747 0.985268 3.027727
v -8.450024 1.071861 3.266723
v -7.952395 1.072805 3.417399
v -9.408205 1.516314 2.577320
v -9.677177 1.327160 2.868913
v -9.592141 1.408277 2.374516
v -9.880576 1.250148 2.429435
v -9.957051 0.835327 2.304519
v -9.704284 0.910885 2.879022
v -9.387840 0.494102 2.605830
v -8.859069 0.568425 2.836640
v -9.631096 0.477463 2.035774
v -8.266772 0.657673 3.159378
v -7.770858 0.688292 3.337410
v -7.478572 0.856476 1.669043
v -7.355034 0.846950 2.044999
v -7.687721 0.747274 1.379316
v -7.741700 1.082525 1.296009
v -7.482650 1.114973 1.664877
v -7.327559 1.082601 2.089426
v -7.994852 0.792728 1.142997
v -8.403858 0.855389 1.003512
v -8.493335 1.172258 0.936627
v -8.074588 1.189803 1.020495
v -8.136228 1.465327 1.132146
v -7.818762 1.421179 1.375311
v -8.530968 1.435369 1.060560
v -8.530108 1.575817 1.230816
v -8.262312 1.675290 1.318503
v -7.973859 1.706200 1.546027
v -7.581803 1.387814 1.724362
v -7.440548 1.356550 2.120959
v -7.746630 1.654466 1.860467
v -7.612243 1.570053 2.129439
v -7.919371 1.751970 2.126880
v -7.672069 1.660040 2.393231
v -8.200123 1.760484 1.815501
v -8.455351 1.733151 2.131391
v -8.120160 1.770093 2.436379
v -7.840915 1.712445 2.700202
v -8.505421 1.699874 1.554530
v -8.787094 1.567895 1.353515
v -9.094426 1.528501 1.602887
v -8.794698 1.655279 1.842416
v -9.056054 1.575754 2.170114
v -8.746737 1.656971 2.459747
v -9.385985 1.442277 2.004359
v -8.396658 1.690849 2.719987
v -8.104829 1.645665 2.939636
v -9.625401 1.265076 1.691335
v -9.308243 1.356938 1.287371
v -9.362057 0.991293 0.900057
v -9.615635 0.907322 1.287939
v -8.929734 1.390325 1.133021
v -8.942086 1.082052 0.896261
v -8.854144 0.756241 0.874544
v -9.228806 0.607638 0.869561
v -9.452198 0.554596 1.229128
v -7.469319 1.356597 2.543329
v -7.635189 1.387089 2.891348
v -7.439911 0.969579 2.950661
v -7.347259 1.021375 2.547521
v -7.903926 1.374280 3.134266
v -7.634820 1.006164 3.254209
v -7.475704 0.609155 3.177280
v -7.402030 0.581305 2.850732
v -7.381323 0.704179 2.476906
vt 0.347226 0.429281
vt 0.413770 0.409449
vt 0.402218 0.470650
vt 0.323698 0.478732
vt 0.509903 0.403918
vt 0.513729 0.487542
vt 0.494142 0.560398
vt 0.362640 0.534853
vt 0.283139 0.530913
vt 0.583012 0.448310
vt 0.575582 0.509312
vt 0.624974 0.469763
vt 0.626802 0.515451
vt 0.648360 0.563702
vt 0.579565 0.560077
vt 0.588670 0.650047
vt 0.466151 0.671440
vt 0.693533 0.626349
vt 0.326713 0.611956
vt 0.253838 0.578264
vt -0.177763 0.563553
vt -0.359476 0.614471
vt -0.382311 0.403076
vt -0.163288 0.451482
vt -0.025950 0.567660
vt -0.006984 0.496522
vt 1.165182 0.536139
vt 1.023433 0.526789
vt 0.986101 0.449040
vt 1.103405 0.409559
vt 1.329930 0.575977
vt 1.282664 0.398983
vt 1.062903 0.320944
vt 1.204143 0.232530
vt 0.956944 0.381200
vt 0.930624 0.325264
vt 0.986348 0.245716
vt 1.053657 0.106031
vt -0.115365 0.335721
vt 0.019156 0.410446
vt -0.285071 0.210689
vt -0.114208 0.065609
vt -0.010791 0.229862
vt 0.053742 0.329948
vt 0.125853 0.223299
vt 0.137195 0.345159
vt 0.105777 0.028281
vt 0.332852 0.095319
vt 0.250874 0.266249
vt 0.219849 0.368612
vt 0.865844 0.235360
vt 0.863526 0.066963
vt 0.856666 0.348065
vt 0.768882 0.380491
vt 0.736641 0.275815
vt 0.663588 0.116516
vt 0.632727 0.345966
vt 0.506682 0.256504
vt 0.678230 0.427823
vt 0.360268 0.333465
vt 0.292838 0.400136
vt 0.727352 0.484970
vt 0.804408 0.453790
vt 0.844617 0.517796
vt 0.788053 0.535163
vt 0.870668 0.420782
vt 0.897289 0.488677
vt 0.918096 0.544359
vt 0.864490 0.559065
vt 0.816360 0.584730
vt 0.125942 0.444675
vt 0.203137 0.457561
vt 0.183987 0.536597
vt 0.108977 0.523581
vt 0.265656 0.470984
vt 0.235731 0.536024
vt 0.214510 0.586019
vt 0.172756 0.601066
vt 0.098418 0.598765
vn -0.087600 0.812700 0.576100
vn -0.186800 0.868000 0.460100
vn -0.256300 0.499000 0.827800
vn -0.024100 0.560600 0.827800
vn -0.207600 0.925500 0.316900
vn -0.282200 0.513500 0.810400
vn -0.273700 -0.256100 0.927100
vn -0.303800 -0.117700 0.945400
vn 0.099800 0.163600 0.981500
vn -0.326600 0.937300 0.121400
vn -0.600700 0.501400 0.622700
vn -0.448400 0.890600 -0.076400
vn -0.857100 0.511300 0.063200
vn -0.963300 -0.261600 0.059500
vn -0.615600 -0.321500 0.719500
vn -0.423700 -0.688700 0.588400
vn -0.257600 -0.513500 0.818500
vn -0.802100 -0.595000 -0.051100
vn -0.296100 -0.395100 0.869600
vn 0.216900 -0.114400 0.969500
vn 0.884200 -0.011400 -0.466900
vn 0.733600 -0.051800 -0.677700
vn 0.719000 0.120900 -0.684400
vn 0.875300 0.187500 -0.445700
vn 0.985200 -0.067200 -0.157600
vn 0.979500 0.157400 -0.125700
vn 0.482900 -0.144100 -0.863700
vn 0.222800 -0.120400 -0.967400
vn 0.115000 0.213800 -0.970100
vn 0.420900 0.140000 -0.896200
vn 0.341900 0.563200 -0.752300
vn 0.654600 0.501100 -0.566100
vn -0.045700 0.626500 -0.778100
vn -0.142800 0.834200 -0.532600
vn 0.097200 0.874100 -0.475900
vn 0.372100 0.863700 -0.340100
vn 0.788700 0.490800 -0.370200
vn 0.869400 0.484400 -0.097500
vn 0.559400 0.801500 -0.211300
vn 0.702800 0.705500 -0.091700
vn 0.238700 0.970300 -0.040000
vn 0.590400 0.802900 0.082300
vn 0.008200 0.996600 -0.082200
vn -0.158200 0.987300 0.013100
vn 0.010100 0.995900 0.090200
vn 0.378800 0.869000 0.318400
vn -0.173500 0.967700 -0.183200
vn -0.268000 0.893100 -0.361200
vn -0.362100 0.913300 -0.186500
vn -0.269400 0.960800 -0.066000
vn -0.287600 0.957400 -0.025600
vn -0.206700 0.972200 0.109700
vn -0.410800 0.902600 -0.128800
vn -0.143300 0.953600 0.264700
vn 0.117600 0.856100 0.503200
vn -0.730500 0.625800 -0.273400
vn -0.493400 0.750500 -0.439800
vn -0.536100 0.248100 -0.806900
vn -0.899000 0.027000 -0.437200
vn -0.234000 0.737800 -0.633200
vn -0.056600 0.338900 -0.939100
vn 0.082600 0.026600 -0.996200
vn -0.450800 -0.100700 -0.886900
vn -0.829100 -0.346600 -0.438700
vn 0.848400 0.492800 0.193300
vn 0.686000 0.568800 0.453800
vn 0.899800 0.253600 0.354900
vn 0.977000 0.155700 0.146000
vn 0.419800 0.642500 0.641100
vn 0.638500 0.305900 0.706200
vn 0.813700 0.113100 0.570200
vn 0.967700 0.050000 0.247100
vn 0.993900 -0.069100 0.085500
usemtl lambert4SG.002
s 1
f 21/17/13 22/18/14 23/19/15 24/20/16
f 22/18/14 25/21/17 26/22/18 23/19/15
f 23/19/15 26/22/18 27/23/19 28/24/20
f 24/20/16 23/19/15 28/24/20 29/25/21
f 25/21/17 30/26/22 31/27/23 26/22/18
f 30/26/22 32/28/24 33/29/25 31/27/23
f 31/27/23 33/29/25 34/30/26 35/31/27
f 26/22/18 31/27/23 35/31/27 27/23/19
f 27/23/19 35/31/27 36/32/28 37/33/29
f 35/31/27 34/30/26 38/34/30 36/32/28
f 29/25/21 28/24/20 39/35/31 40/36/32
f 28/24/20 27/23/19 37/33/29 39/35/31
f 41/37/33 43/38/34 44/39/35 45/40/36
f 42/41/37 41/37/33 45/40/36 46/42/38
f 47/43/39 48/44/40 49/45/41 50/46/42
f 43/47/34 47/43/39 50/46/42 44/48/35
f 44/48/35 50/46/42 51/49/43 52/50/44
f 50/46/42 49/45/41 53/51/45 51/49/43
f 51/49/43 53/51/45 54/52/46 55/53/47
f 52/50/44 51/49/43 55/53/47 56/54/48
f 46/42/38 45/40/36 57/55/49 58/56/50
f 45/40/36 44/39/35 52/57/44 57/55/49
f 57/55/49 52/57/44 56/58/48 59/59/51
f 58/56/50 57/55/49 59/59/51 60/60/52
f 60/60/52 59/59/51 61/61/53 62/62/54
f 59/59/51 56/58/48 63/63/55 61/61/53
f 61/61/53 63/63/55 64/64/56 65/65/57
f 62/62/54 61/61/53 65/65/57 66/66/58
f 56/54/48 55/53/47 67/67/59 63/68/55
f 55/53/47 54/52/46 68/69/60 67/67/59
f 67/67/59 68/69/60 69/70/61 70/71/62
f 63/68/55 67/67/59 70/71/62 64/72/56
f 64/72/56 70/71/62 71/73/63 72/74/64
f 70/71/62 69/70/61 73/75/65 71/73/63
f 71/73/63 73/75/65 32/28/24 30/26/22
f 72/74/64 71/73/63 30/26/22 25/21/17
f 66/66/58 65/65/57 74/76/66 75/77/67
f 65/65/57 64/64/56 72/74/64 74/76/66
f 74/76/66 72/74/64 25/21/17 22/18/14
f 22/18/14 21/17/13 75/77/67 74/76/66
f 32/28/24 73/75/65 76/78/68 33/29/25
f 73/75/65 69/70/61 77/79/69 76/78/68
f 76/78/68 77/79/69 78/80/70 79/81/71
f 33/29/25 76/78/68 79/81/71 34/30/26
f 69/70/61 68/69/60 80/82/72 77/79/69
f 68/69/60 54/52/46 53/51/45 80/82/72
f 80/82/72 53/51/45 49/45/41 81/83/73
f 77/79/69 80/82/72 81/83/73 78/80/70
f 78/80/70 81/83/73 82/84/74 83/85/75
f 81/83/73 49/45/41 48/44/40 82/84/74
f 34/30/26 79/81/71 84/86/76 38/34/30
f 79/81/71 78/80/70 83/85/75 84/86/76
f 60/60/52 62/62/54 85/87/77 58/56/50
f 62/62/54 66/66/58 86/88/78 85/87/77
f 85/87/77 86/88/78 87/89/79 88/90/80
f 58/56/50 85/87/77 88/90/80 46/42/38
f 66/66/58 75/77/67 89/91/81 86/88/78
f 75/77/67 21/17/13 24/20/16 89/91/81
f 89/91/81 24/20/16 29/25/21 90/92/82
f 86/88/78 89/91/81 90/92/82 87/89/79
f 87/89/79 90/92/82 91/93/83 92/94/84
f 90/92/82 29/25/21 40/36/32 91/93/83
f 46/42/38 88/90/80 93/95/85 42/41/37
f 88/90/80 87/89/79 92/94/84 93/95/85
o stone_stone.001
v -9.173203 2.362329 -0.044795
v -9.880395 2.414897 0.205575
v -9.554167 2.014797 0.592644
v -8.608143 2.020027 0.149156
v -10.919262 2.423069 0.499506
v -10.870574 1.967843 1.275324
v -10.659501 1.020683 1.153614
v -9.024465 1.235692 0.525249
v -7.844876 1.238037 0.000563
v -11.943900 2.339277 0.785326
v -11.975935 1.869604 1.769822
v -12.618708 2.071020 0.702860
v -13.071506 1.678382 1.274259
v -13.417968 0.648377 1.163696
v -12.010457 0.835987 1.832820
v -11.859358 -0.198891 0.805837
v -10.491172 -0.014346 0.381159
v -13.241777 -0.240205 0.129629
v -8.854403 0.207257 0.026089
v -7.633629 0.283285 -0.444416
v -9.792688 0.700890 -4.053592
v -8.950285 0.677235 -3.547742
v -10.655972 0.429740 -4.258454
v -10.892621 1.262173 -4.327359
v -9.807111 1.342742 -4.054803
v -8.826548 1.262360 -3.508867
v -11.616653 0.542602 -4.203916
v -12.611565 0.698191 -3.802061
v -12.888255 1.484981 -3.782486
v -11.965327 1.528545 -4.304650
v -11.899899 2.212676 -3.994811
v -10.908685 2.103054 -4.053265
v -12.757786 2.138290 -3.488539
v -12.479795 2.487024 -3.170038
v -11.834291 2.734016 -3.439992
v -10.922977 2.810765 -3.480736
v -9.896852 2.020208 -3.782079
v -8.987654 1.942580 -3.266208
v -9.985608 2.682310 -3.258788
v -9.296487 2.472710 -2.971565
v -9.877708 2.924412 -2.477815
v -8.980685 2.696151 -2.378806
v -10.910671 2.945554 -2.607128
v -10.877445 2.877686 -1.599287
v -9.752566 2.969412 -1.570353
v -8.799630 2.826271 -1.527948
v -11.907930 2.795058 -2.601881
v -12.763475 2.467353 -2.522333
v -12.936120 2.369536 -1.554898
v -11.984134 2.684328 -1.591390
v -11.943252 2.486866 -0.551417
v -10.891915 2.688529 -0.509335
v -12.832233 2.155443 -0.327284
v -9.811706 2.772650 -0.588644
v -8.906829 2.660456 -0.649668
v -13.790201 1.715449 -0.526786
v -13.850036 1.943543 -1.800638
v -14.579871 1.035642 -2.441013
v -14.426678 0.827143 -1.300585
v -13.389408 2.026444 -2.705076
v -13.796947 1.260998 -3.129876
v -13.666963 0.452005 -3.313436
v -14.379008 0.083023 -2.714613
v -14.215062 -0.048683 -1.676389
v -8.356086 1.942697 -2.425907
v -8.102804 2.018408 -1.502757
v -7.639615 0.981725 -1.708304
v -8.119940 1.110334 -2.616169
v -8.213411 1.986603 -0.610097
v -7.513086 1.072566 -0.821570
v -7.338998 0.086786 -1.224406
v -7.730653 0.017636 -1.957554
v -8.298573 0.322732 -2.693554
vt 0.347226 0.429281
vt 0.413770 0.409449
vt 0.402218 0.470650
vt 0.323698 0.478732
vt 0.509903 0.403918
vt 0.513729 0.487542
vt 0.494142 0.560398
vt 0.362640 0.534853
vt 0.283139 0.530913
vt 0.583012 0.448310
vt 0.575582 0.509312
vt 0.624974 0.469763
vt 0.626802 0.515451
vt 0.648360 0.563702
vt 0.579565 0.560077
vt 0.588670 0.650047
vt 0.466151 0.671440
vt 0.693533 0.626349
vt 0.326713 0.611956
vt 0.253838 0.578264
vt -0.177763 0.563553
vt -0.359476 0.614471
vt -0.382311 0.403076
vt -0.163288 0.451482
vt -0.025950 0.567660
vt -0.006984 0.496522
vt 1.165182 0.536139
vt 1.023433 0.526789
vt 0.986101 0.449040
vt 1.103405 0.409559
vt 1.329930 0.575977
vt 1.282664 0.398983
vt 1.062903 0.320944
vt 1.204143 0.232530
vt 0.956944 0.381200
vt 0.930624 0.325264
vt 0.986348 0.245716
vt 1.053657 0.106031
vt -0.115365 0.335721
vt 0.019156 0.410446
vt -0.285071 0.210689
vt -0.114208 0.065609
vt -0.010791 0.229862
vt 0.053742 0.329948
vt 0.125853 0.223299
vt 0.137195 0.345159
vt 0.105777 0.028281
vt 0.332852 0.095319
vt 0.250874 0.266249
vt 0.219849 0.368612
vt 0.865844 0.235360
vt 0.863526 0.066963
vt 0.856666 0.348065
vt 0.768882 0.380491
vt 0.736641 0.275815
vt 0.663588 0.116516
vt 0.632727 0.345966
vt 0.506682 0.256504
vt 0.678230 0.427823
vt 0.360268 0.333465
vt 0.292838 0.400136
vt 0.727352 0.484970
vt 0.804408 0.453790
vt 0.844617 0.517796
vt 0.788053 0.535163
vt 0.870668 0.420782
vt 0.897289 0.488677
vt 0.918096 0.544359
vt 0.864490 0.559065
vt 0.816360 0.584730
vt 0.125942 0.444675
vt 0.203137 0.457561
vt 0.183987 0.536597
vt 0.108977 0.523581
vt 0.265656 0.470984
vt 0.235731 0.536024
vt 0.214510 0.586019
vt 0.172756 0.601066
vt 0.098418 0.598765
vn 0.310300 0.812700 0.493200
vn 0.159400 0.868000 0.470200
vn 0.347300 0.499000 0.794000
vn 0.522900 0.560600 0.642200
vn 0.050100 0.925500 0.375500
vn 0.316200 0.513500 0.797700
vn 0.398900 -0.256100 0.880500
vn 0.388200 -0.117700 0.914000
vn 0.717100 0.163600 0.677400
vn -0.167800 0.937300 0.305400
vn -0.047500 0.501400 0.863900
vn -0.389200 0.890600 0.235400
vn -0.607200 0.511300 0.608100
vn -0.690100 -0.261600 0.674800
vn 0.004500 -0.321500 0.946900
vn 0.064100 -0.688700 0.722200
vn 0.340100 -0.513500 0.787800
vn -0.640300 -0.595000 0.485700
vn 0.344500 -0.395100 0.851600
vn 0.797900 -0.114400 0.591800
vn 0.363800 -0.011400 -0.931400
vn 0.112100 -0.051800 -0.992400
vn 0.096600 0.120900 -0.987900
vn 0.371000 0.187500 -0.909500
vn 0.642500 -0.067200 -0.763400
vn 0.659000 0.157400 -0.735500
vn -0.199300 -0.144100 -0.969300
vn -0.463900 -0.120400 -0.877700
vn -0.547200 0.213800 -0.809200
vn -0.267500 0.140000 -0.953300
vn -0.233000 0.563200 -0.792800
vn 0.125200 0.501100 -0.856300
vn -0.543300 0.626500 -0.558900
vn -0.456200 0.834200 -0.309700
vn -0.237600 0.874100 -0.423600
vn 0.059200 0.863700 -0.500600
vn 0.354800 0.490800 -0.795800
vn 0.594100 0.484400 -0.642200
vn 0.285100 0.801500 -0.525600
vn 0.471800 0.705400 -0.528900
vn 0.154500 0.970300 -0.186400
vn 0.500500 0.802900 -0.323700
vn -0.047500 0.996600 -0.067600
vn -0.111200 0.987300 0.113300
vn 0.066600 0.995900 0.061700
vn 0.494800 0.869000 -0.006700
vn -0.251000 0.967700 -0.025200
vn -0.439000 0.893100 -0.098100
vn -0.395900 0.913300 0.095600
vn -0.247000 0.960800 0.126100
vn -0.234400 0.957400 0.168600
vn -0.084700 0.972200 0.218100
vn -0.395100 0.902600 0.171100
vn 0.064600 0.953600 0.294000
vn 0.418000 0.856100 0.303800
vn -0.731500 0.625800 0.270600
vn -0.660800 0.750500 -0.010200
vn -0.933200 0.248100 -0.260100
vn -0.966100 0.027000 0.256900
vn -0.591000 0.737800 -0.326200
vn -0.656700 0.338900 -0.673700
vn -0.588800 0.026600 -0.807900
vn -0.921000 -0.100800 -0.376400
vn -0.914200 -0.346600 0.210100
vn 0.768400 0.492800 -0.408400
vn 0.815800 0.568800 -0.105100
vn 0.912900 0.253600 -0.319700
vn 0.834700 0.155700 -0.528200
vn 0.736800 0.642500 0.210600
vn 0.944900 0.305900 0.117000
vn 0.988500 0.113100 -0.100400
vn 0.893800 0.050000 -0.445700
vn 0.808000 -0.069100 -0.585100
usemtl lambert4SG.001
s 1
f 94/96/86 95/97/87 96/98/88 97/99/89
f 95/97/87 98/100/90 99/101/91 96/98/88
f 96/98/88 99/101/91 100/102/92 101/103/93
f 97/99/89 96/98/88 101/103/93 102/104/94
f 98/100/90 103/105/95 104/106/96 99/101/91
f 103/105/95 105/107/97 106/108/98 104/106/96
f 104/106/96 106/108/98 107/109/99 108/110/100
f 99/101/91 104/106/96 108/110/100 100/102/92
f 100/102/92 108/110/100 109/111/101 110/112/102
f 108/110/100 107/109/99 111/113/103 109/111/101
f 102/104/94 101/103/93 112/114/104 113/115/105
f 101/103/93 100/102/92 110/112/102 112/114/104
f 114/116/106 116/117/107 117/118/108 118/119/109
f 115/120/110 114/116/106 118/119/109 119/121/111
f 120/122/112 121/123/113 122/124/114 123/125/115
f 116/126/107 120/122/112 123/125/115 117/127/108
f 117/127/108 123/125/115 124/128/116 125/129/117
f 123/125/115 122/124/114 126/130/118 124/128/116
f 124/128/116 126/130/118 127/131/119 128/132/120
f 125/129/117 124/128/116 128/132/120 129/133/121
f 119/121/111 118/119/109 130/134/122 131/135/123
f 118/119/109 117/118/108 125/136/117 130/134/122
f 130/134/122 125/136/117 129/137/121 132/138/124
f 131/135/123 130/134/122 132/138/124 133/139/125
f 133/139/125 132/138/124 134/140/126 135/141/127
f 132/138/124 129/137/121 136/142/128 134/140/126
f 134/140/126 136/142/128 137/143/129 138/144/130
f 135/141/127 134/140/126 138/144/130 139/145/131
f 129/133/121 128/132/120 140/146/132 136/147/128
f 128/132/120 127/131/119 141/148/133 140/146/132
f 140/146/132 141/148/133 142/149/134 143/150/135
f 136/147/128 140/146/132 143/150/135 137/151/129
f 137/151/129 143/150/135 144/152/136 145/153/137
f 143/150/135 142/149/134 146/154/138 144/152/136
f 144/152/136 146/154/138 105/107/97 103/105/95
f 145/153/137 144/152/136 103/105/95 98/100/90
f 139/145/131 138/144/130 147/155/139 148/156/140
f 138/144/130 137/143/129 145/153/137 147/155/139
f 147/155/139 145/153/137 98/100/90 95/97/87
f 95/97/87 94/96/86 148/156/140 147/155/139
f 105/107/97 146/154/138 149/157/141 106/108/98
f 146/154/138 142/149/134 150/158/142 149/157/141
f 149/157/141 150/158/142 151/159/143 152/160/144
f 106/108/98 149/157/141 152/160/144 107/109/99
f 142/149/134 141/148/133 153/161/145 150/158/142
f 141/148/133 127/131/119 126/130/118 153/161/145
f 153/161/145 126/130/118 122/124/114 154/162/146
f 150/158/142 153/161/145 154/162/146 151/159/143
f 151/159/143 154/162/146 155/163/147 156/164/148
f 154/162/146 122/124/114 121/123/113 155/163/147
f 107/109/99 152/160/144 157/165/149 111/113/103
f 152/160/144 151/159/143 156/164/148 157/165/149
f 133/139/125 135/141/127 158/166/150 131/135/123
f 135/141/127 139/145/131 159/167/151 158/166/150
f 158/166/150 159/167/151 160/168/152 161/169/153
f 131/135/123 158/166/150 161/169/153 119/121/111
f 139/145/131 148/156/140 162/170/154 159/167/151
f 148/156/140 94/96/86 97/99/89 162/170/154
f 162/170/154 97/99/89 102/104/94 163/171/155
f 159/167/151 162/170/154 163/171/155 160/168/152
f 160/168/152 163/171/155 164/172/156 165/173/157
f 163/171/155 102/104/94 113/115/105 164/172/156
f 119/121/111 161/169/153 166/174/158 115/120/110
f 161/169/153 160/168/152 165/173/157 166/174/158
o aquarium_ground_mesh
v 22.348886 0.793801 -12.494799
v 20.717785 0.748370 -12.494799
v 20.791210 0.820920 -11.151491
v 22.348886 0.901080 -11.133720
v 17.285240 0.809929 -12.494799
v 17.381582 1.088133 -10.832691
v 13.971950 0.945611 -10.867245
v 13.878094 1.040113 -12.494799
v 10.562319 0.791400 -11.052812
v 10.481801 0.935254 -12.494799
v 7.047359 1.048296 -12.494798
v 7.152689 0.897026 -10.707624
v 3.743059 0.921848 -10.972699
v 3.656784 0.725731 -12.494798
v 0.333428 0.856072 -10.831429
v 0.237000 0.768997 -12.494798
v -3.076200 0.841920 -11.093838
v -3.153768 1.016789 -12.494800
v -6.588686 1.164332 -12.494800
v -6.485832 0.735014 -10.742059
v -9.895462 0.850149 -10.702156
v -10.001182 1.022331 -12.494798
v -13.305092 0.766321 -10.798108
v -13.403915 1.052724 -12.494800
v -16.714722 0.784933 -11.258972
v -16.780418 0.808769 -12.494800
v -20.229015 0.912324 -12.494800
v -20.124348 0.980384 -10.716845
v -23.533979 0.844868 -11.315045
v -23.595648 0.908595 -12.494798
v -24.591324 0.912556 -12.494798
v -24.591324 0.876134 -11.243309
v 20.590139 1.222710 -8.887933
v 22.348886 1.075044 -8.867783
v 17.180508 0.968770 -8.569127
v 13.770878 0.819173 -8.603683
v 10.361248 0.715443 -8.789253
v 6.951617 1.247853 -8.444066
v 3.541986 0.997702 -8.709142
v 0.132357 1.074378 -8.567869
v -3.277273 1.164697 -8.830278
v -6.686903 1.051680 -8.478498
v -10.096534 0.638309 -8.438598
v -13.506163 1.043473 -8.534548
v -16.915792 1.156172 -8.995414
v -20.325422 0.837314 -8.453285
v -23.735052 1.237623 -9.051483
v -24.589567 1.226171 -8.995255
v 20.642904 1.051719 -6.624374
v 22.348886 1.009186 -6.604845
v 17.233274 0.787400 -6.305570
v 13.823645 0.895632 -6.340125
v 10.414014 1.105602 -6.525692
v 7.004384 1.136791 -6.180504
v 3.594754 1.013321 -6.445580
v 0.185124 1.068695 -6.304308
v -3.224506 0.635185 -6.566720
v -6.634136 1.031640 -6.214938
v -10.043765 0.703585 -6.175035
v -13.453396 0.595142 -6.270988
v -16.863024 0.640096 -6.731852
v -20.272654 0.777516 -6.189723
v -23.682287 0.958163 -6.787925
v -24.589567 0.939587 -6.727626
v 20.812563 1.081954 -4.360813
v 22.348886 0.983238 -4.343292
v 17.402929 1.180345 -4.042010
v 13.993300 0.959205 -4.076566
v 10.583668 1.016357 -4.262132
v 7.174037 0.752931 -3.916945
v 3.764407 1.042594 -4.182020
v 0.354778 0.972076 -4.040749
v -3.054852 0.813340 -4.303160
v -6.464482 1.079879 -3.951379
v -9.874111 0.952152 -3.911476
v -13.283740 1.181278 -4.007429
v -16.693369 1.373877 -4.468293
v -20.103001 0.576845 -3.926164
v -23.512630 0.809875 -4.524365
v -24.589567 0.761792 -4.450984
v 20.581726 1.028061 -2.097253
v 22.348886 1.019766 -2.077002
v 17.172096 0.847629 -1.778449
v 13.762465 0.891262 -1.813005
v 10.352835 0.560683 -1.998572
v 6.943207 0.927576 -1.653386
v 3.533576 1.300990 -1.918460
v 0.123945 0.730904 -1.777189
v -3.285683 1.161590 -2.039599
v -6.695315 0.838838 -1.687818
v -10.104943 1.079215 -1.647917
v -13.514572 0.659200 -1.743868
v -16.924202 0.946542 -2.204733
v -20.333832 0.820614 -1.662605
v -23.743464 0.996662 -2.260804
v -24.589567 0.995093 -2.205227
v 17.141899 1.357776 0.485111
v 20.551531 0.787489 0.166306
v 13.732269 1.133641 0.450555
v 10.322639 1.080858 0.264987
v 6.913009 0.648457 0.610175
v 3.503377 1.088105 0.345101
v 0.093747 0.779360 0.486371
v -3.315883 0.590786 0.223961
v -6.725513 0.949408 0.575742
v -10.135140 0.732334 0.615645
v -13.544771 0.626938 0.519692
v -16.954401 0.966887 0.058826
v -20.364033 1.042000 0.600956
v -23.773659 1.082727 0.002755
v -24.589567 1.058671 0.056004
v 22.348886 0.998744 0.186915
v 20.787170 0.939588 2.429866
v 22.348886 0.920261 2.447690
v 17.377541 0.838659 2.748670
v 13.967910 0.996067 2.714116
v 10.558278 0.984994 2.528548
v 7.148646 1.202275 2.873735
v 3.739019 1.108280 2.608660
v 0.329389 0.397507 2.749932
v -3.080241 1.113543 2.487520
v -6.489870 0.828861 2.839303
v -9.899501 0.820937 2.879204
v -13.309129 1.087919 2.783252
v -16.718760 0.889949 2.322388
v -20.128386 1.088359 2.864515
v -23.538023 0.825935 2.266315
v -24.589567 0.855715 2.337739
v 20.690550 0.545592 4.693427
v 22.348886 0.654487 4.712391
v 17.280916 1.135691 5.012232
v 13.871285 0.793293 4.977676
v 10.461655 0.922383 4.792109
v 7.052024 0.951626 5.137295
v 3.642395 1.057587 4.872220
v 0.232765 0.975459 5.013492
v -3.176864 0.736440 4.751081
v -6.586493 0.150739 5.102863
v -9.996126 1.234591 5.142764
v -13.405753 0.674633 5.046812
v -16.815384 1.185445 4.585947
v -20.225016 0.899145 5.128077
v -23.634645 0.792127 4.529876
v -24.591337 0.810677 4.593845
v 20.699984 0.800921 6.956987
v 22.348886 0.910870 6.975840
v 17.290352 0.994843 7.275791
v 13.880724 0.864990 7.241236
v 10.471091 1.259378 7.055668
v 7.061463 0.746779 7.400856
v 3.651832 0.408581 7.135780
v 0.242202 1.275768 7.277051
v -3.167427 0.672606 7.014642
v -6.577057 0.709591 7.366422
v -9.986688 0.648622 7.406322
v -13.396316 1.254600 7.310372
v -16.805944 1.052501 6.849506
v -20.215578 0.747723 7.391636
v -23.625208 0.951419 6.793436
v -24.591337 0.923089 6.858134
v 20.572863 1.264843 9.220547
v 22.348886 1.008428 9.240903
v 17.163233 0.814005 9.539351
v 13.753604 1.119009 9.504796
v 10.343974 0.787325 9.319227
v 6.934340 0.806873 9.664414
v 3.524712 0.732716 9.399342
v 0.115082 0.900150 9.540609
v -3.294547 1.227713 9.278202
v -6.704176 0.746109 9.629984
v -10.113807 0.800179 9.669886
v -13.523438 1.233010 9.573933
v -16.933067 0.852496 9.113068
v -20.342699 0.899769 9.655196
v -23.752327 1.183805 9.056995
v -24.589567 1.112633 9.111889
v 17.414822 1.124209 11.802908
v 20.824451 1.054124 11.484107
v 14.005193 0.989915 11.768356
v 10.595561 1.017511 11.582788
v 7.185928 1.015197 11.927974
v 3.776299 0.624025 11.662901
v 0.366669 1.219251 11.804172
v -3.042959 0.405142 11.541761
v -6.452591 0.993619 11.893544
v -9.862220 0.976614 11.933445
v -13.271849 0.622289 11.837493
v -16.681479 1.066292 11.376629
v -20.091110 0.923671 11.918756
v -23.500738 0.969330 11.320556
v -24.589565 0.975403 11.394854
v 20.646170 1.051619 12.540947
v 22.348886 0.977957 12.540953
v 22.348886 1.011585 11.501486
v 13.866369 1.097311 12.540953
v 17.280802 1.021366 12.540953
v 10.430978 0.825246 12.540953
v 3.622838 0.785467 12.540947
v 7.069269 0.854783 12.540953
v 0.232819 1.060749 12.540955
v -3.213239 0.756268 12.540953
v -9.978124 1.000248 12.540947
v -6.574033 0.941350 12.540955
v -13.401075 0.846534 12.540962
v -16.874687 0.926308 12.540955
v -23.701729 1.078277 12.540950
v -20.209055 0.989415 12.540955
v -24.589565 1.020302 12.540955
v 20.603100 0.020844 12.541113
v 22.356621 0.021838 12.541599
v 13.931640 0.019865 12.541730
v 17.265244 0.021165 12.539067
v 10.512497 0.023459 12.546542
v 3.479123 0.023700 12.541368
v 7.060362 0.023098 12.541121
v 0.228372 0.019143 12.539146
v -3.111930 0.023089 12.531268
v -9.949585 0.021012 12.536301
v -6.634199 0.021670 12.535736
v -13.378921 0.023025 12.538671
v -16.924505 0.022367 12.544726
v -23.641047 0.020379 12.539033
v -20.262089 0.021558 12.541510
v -24.601990 0.021172 12.539747
vt 0.949792 0.982532
vt 0.916931 0.982792
vt 0.918226 0.949392
vt 0.949743 0.948704
vt 0.851735 0.982822
vt 0.853426 0.941891
vt 0.788532 0.943119
vt 0.786741 0.982988
vt 0.723572 0.947254
vt 0.722021 0.982990
vt 0.656545 0.982975
vt 0.658600 0.939469
vt 0.593485 0.945460
vt 0.591644 0.983185
vt 0.528380 0.942461
vt 0.526630 0.983085
vt 0.463426 0.948620
vt 0.461975 0.983550
vt 0.396588 0.984114
vt 0.398630 0.940666
vt 0.333666 0.939823
vt 0.331636 0.983515
vt 0.268611 0.942186
vt 0.266877 0.983958
vt 0.203832 0.952476
vt 0.202307 0.983502
vt 0.136611 0.982679
vt 0.138834 0.939395
vt 0.073834 0.952891
vt 0.072631 0.982661
vt 0.050321 0.982548
vt 0.050282 0.951268
vt 0.914043 0.898509
vt 0.949425 0.898025
vt 0.849275 0.891639
vt 0.784427 0.892691
vt 0.719828 0.897224
vt 0.654569 0.888738
vt 0.589575 0.894951
vt 0.524379 0.891798
vt 0.459650 0.898041
vt 0.394929 0.889956
vt 0.329259 0.889256
vt 0.264196 0.891958
vt 0.200123 0.901877
vt 0.135451 0.888586
vt 0.069975 0.901841
vt 0.050269 0.900516
vt 0.914898 0.848172
vt 0.949300 0.847564
vt 0.850052 0.841418
vt 0.785390 0.842376
vt 0.720393 0.846597
vt 0.655626 0.838724
vt 0.590588 0.844598
vt 0.525557 0.841501
vt 0.460558 0.847282
vt 0.395621 0.839691
vt 0.330259 0.839027
vt 0.265641 0.841399
vt 0.201406 0.851028
vt 0.136807 0.837865
vt 0.071465 0.851125
vt 0.050718 0.849632
vt 0.917831 0.797800
vt 0.949060 0.797252
vt 0.853308 0.790750
vt 0.788545 0.791874
vt 0.723798 0.796443
vt 0.659093 0.787889
vt 0.593896 0.794144
vt 0.528540 0.790959
vt 0.463700 0.797648
vt 0.398913 0.789402
vt 0.333784 0.788300
vt 0.268681 0.789747
vt 0.204875 0.799404
vt 0.139381 0.787368
vt 0.074748 0.800582
vt 0.050755 0.798948
vt 0.913156 0.747446
vt 0.948665 0.746769
vt 0.848452 0.740223
vt 0.783697 0.741282
vt 0.719014 0.745707
vt 0.654402 0.737474
vt 0.589323 0.743597
vt 0.523693 0.740274
vt 0.459035 0.747547
vt 0.394530 0.738665
vt 0.329392 0.737630
vt 0.264352 0.738556
vt 0.199904 0.749134
vt 0.135234 0.737104
vt 0.070391 0.750043
vt 0.050835 0.748762
vt 0.847212 0.689288
vt 0.912120 0.696873
vt 0.783044 0.690459
vt 0.718458 0.694651
vt 0.653733 0.687168
vt 0.588623 0.693109
vt 0.523119 0.689893
vt 0.458611 0.696688
vt 0.393902 0.688150
vt 0.328779 0.686509
vt 0.264170 0.688782
vt 0.199375 0.698946
vt 0.134906 0.686532
vt 0.070167 0.699617
vt 0.051155 0.698305
vt 0.948435 0.696102
vt 0.916021 0.646330
vt 0.947575 0.645524
vt 0.851861 0.638315
vt 0.787311 0.639618
vt 0.722424 0.644028
vt 0.657858 0.635938
vt 0.593504 0.642486
vt 0.527675 0.639188
vt 0.462614 0.645818
vt 0.398576 0.637770
vt 0.333832 0.635638
vt 0.268686 0.637527
vt 0.204266 0.648582
vt 0.139851 0.636126
vt 0.075071 0.648824
vt 0.051653 0.647015
vt 0.914136 0.595825
vt 0.947041 0.595216
vt 0.849409 0.588333
vt 0.785003 0.589240
vt 0.720569 0.593665
vt 0.655975 0.585465
vt 0.591257 0.592272
vt 0.526446 0.587840
vt 0.461367 0.595250
vt 0.396995 0.586815
vt 0.330299 0.584905
vt 0.266295 0.587530
vt 0.202368 0.598213
vt 0.138041 0.586023
vt 0.073909 0.598683
vt 0.052582 0.596937
vt 0.914081 0.546199
vt 0.946990 0.545481
vt 0.849848 0.538752
vt 0.785284 0.539389
vt 0.720739 0.543634
vt 0.655934 0.534972
vt 0.591606 0.540817
vt 0.525509 0.537646
vt 0.460615 0.545559
vt 0.396185 0.536309
vt 0.332010 0.534142
vt 0.267117 0.537235
vt 0.202843 0.548350
vt 0.138244 0.536145
vt 0.074340 0.549138
vt 0.052913 0.547812
vt 0.911507 0.495980
vt 0.946782 0.495886
vt 0.847367 0.488669
vt 0.783126 0.488946
vt 0.718451 0.492692
vt 0.653696 0.484652
vt 0.588572 0.490346
vt 0.523478 0.486992
vt 0.459378 0.494635
vt 0.394460 0.485367
vt 0.329245 0.484152
vt 0.264246 0.487517
vt 0.199784 0.497965
vt 0.135485 0.486274
vt 0.071448 0.499771
vt 0.052299 0.498557
vt 0.852595 0.438656
vt 0.916216 0.446714
vt 0.788534 0.439597
vt 0.723850 0.442129
vt 0.658992 0.434237
vt 0.593779 0.439846
vt 0.528897 0.437529
vt 0.463643 0.442520
vt 0.398524 0.434757
vt 0.334205 0.434160
vt 0.269564 0.436241
vt 0.204612 0.447909
vt 0.139823 0.436493
vt 0.076291 0.450422
vt 0.052584 0.448696
vt 0.913187 0.423615
vt 0.946718 0.423522
vt 0.946550 0.446413
vt 0.786107 0.422533
vt 0.850178 0.422136
vt 0.720966 0.419900
vt 0.590444 0.419741
vt 0.656578 0.420151
vt 0.526106 0.421417
vt 0.460608 0.418833
vt 0.332028 0.420640
vt 0.396072 0.420281
vt 0.266751 0.419769
vt 0.200458 0.421829
vt 0.072400 0.423824
vt 0.137360 0.422613
vt 0.052480 0.423631
vt 0.913002 0.400955
vt 0.947760 0.402748
vt 0.786990 0.398796
vt 0.850224 0.399827
vt 0.722166 0.401719
vt 0.588056 0.402326
vt 0.656322 0.401502
vt 0.526063 0.398502
vt 0.462395 0.402121
vt 0.332360 0.398704
vt 0.395478 0.399712
vt 0.266791 0.401192
vt 0.199533 0.401644
vt 0.073275 0.400798
vt 0.136559 0.401134
vt 0.051553 0.401490
vn -0.038900 0.997100 -0.065200
vn 0.003000 0.995700 -0.092700
vn 0.005500 0.995600 -0.094000
vn -0.008400 0.995400 -0.095600
vn 0.027200 0.995900 -0.086400
vn 0.002000 0.998900 -0.047900
vn -0.027100 0.999300 0.027100
vn -0.014500 0.999800 0.014100
vn 0.007700 0.999000 0.043100
vn -0.000600 0.996400 0.084500
vn -0.004900 0.999300 0.037200
vn 0.017300 0.999700 -0.019500
vn -0.019700 0.997800 -0.064000
vn -0.023500 0.998400 -0.051200
vn 0.011000 0.998000 -0.062900
vn 0.014800 0.999500 -0.028800
vn 0.007800 1.000000 -0.005600
vn 0.024100 0.993600 0.110500
vn 0.005900 0.984200 0.177000
vn -0.020600 0.999000 0.039800
vn -0.003300 0.997900 0.064800
vn -0.006400 0.988900 0.148500
vn 0.010700 0.999700 0.019900
vn -0.025500 0.992600 0.118700
vn 0.003600 0.999800 -0.019300
vn 0.002400 0.999100 0.043200
vn 0.009700 0.999900 -0.008400
vn 0.010400 0.999400 -0.032700
vn 0.010000 0.999200 -0.038500
vn -0.000300 0.999800 0.020900
vn 0.018600 0.999000 0.040700
vn 0.008600 0.997800 -0.065700
vn 0.001000 0.999900 -0.015600
vn 0.038100 0.998600 -0.036400
vn -0.031800 0.999200 0.026100
vn -0.016500 0.999900 0.001100
vn 0.037800 0.998300 -0.044200
vn 0.017700 0.998800 -0.046400
vn -0.015100 0.999200 -0.036900
vn -0.006000 0.999900 -0.013600
vn -0.009300 0.999900 -0.013400
vn -0.035300 0.999300 -0.009500
vn -0.014400 0.999800 0.010800
vn 0.029100 0.998700 0.041700
vn -0.000600 0.999700 0.025200
vn 0.024300 0.999200 0.032000
vn 0.026000 0.999600 -0.011900
vn -0.004900 0.999900 -0.013500
vn -0.001800 0.999900 0.010900
vn 0.048800 0.998500 0.024300
vn -0.030300 0.999200 -0.024400
vn 0.010300 0.999100 -0.041400
vn 0.028800 0.999400 -0.016900
vn 0.004000 0.999300 0.038200
vn -0.006400 0.999600 0.026400
vn -0.032900 0.999100 0.027700
vn 0.001400 0.998900 0.046100
vn -0.008600 1.000000 -0.003600
vn -0.027600 0.998600 -0.045200
vn 0.035600 0.997800 -0.055600
vn -0.014400 0.999900 0.003800
vn -0.001500 0.999300 0.038000
vn 0.020900 0.996100 0.086100
vn -0.019100 0.995100 0.097300
vn 0.010900 0.999900 -0.003600
vn 0.037900 0.999300 0.001500
vn -0.019300 0.999800 -0.001900
vn -0.013400 0.999600 0.023900
vn -0.002400 0.997500 0.070000
vn 0.030100 0.998700 0.040700
vn 0.009500 1.000000 0.000100
vn -0.035400 0.999300 -0.007200
vn 0.007800 0.999600 -0.028000
vn 0.007000 0.999500 -0.029200
vn -0.015000 0.999400 -0.031700
vn 0.024800 0.999000 -0.036000
vn -0.026100 0.998300 -0.052300
vn -0.034700 0.999100 -0.025200
vn 0.017500 0.999800 -0.002500
vn -0.030500 0.999400 -0.014500
vn 0.004100 0.999700 0.025900
vn -0.012900 0.999400 0.031600
vn -0.000400 0.999900 -0.015600
vn -0.036400 0.998700 -0.035900
vn -0.019900 0.999800 -0.008100
vn 0.055900 0.998400 0.006800
vn -0.004400 0.999900 0.010100
vn -0.036900 0.998800 0.031100
vn 0.017100 0.999100 0.039200
vn 0.007400 0.999100 0.042000
vn -0.022800 0.997800 0.062200
vn 0.007800 0.995700 0.092700
vn -0.010000 0.998700 0.050900
vn -0.001800 0.998800 -0.048500
vn 0.016300 0.997300 -0.071800
vn -0.024500 0.997700 -0.062500
vn 0.021500 0.999800 0.001900
vn 0.005100 0.999900 0.014000
vn -0.023500 0.999200 -0.033800
vn -0.029100 0.997200 -0.069600
vn 0.029600 0.998500 -0.046900
vn -0.028300 0.999100 0.032800
vn -0.037000 0.998200 0.048000
vn 0.029500 0.999200 0.026300
vn -0.003600 0.999800 0.017400
vn -0.019100 0.999800 0.002200
vn 0.016700 0.999400 -0.031800
vn 0.036800 0.998800 -0.031900
vn 0.004500 0.999900 -0.011500
vn 0.001300 1.000000 0.008900
vn -0.003400 0.999300 0.036400
vn -0.057200 0.998100 0.021800
vn 0.012900 0.998300 0.056900
vn -0.043100 0.996900 0.065900
vn 0.029900 0.998100 0.053300
vn -0.009100 0.998100 0.060100
vn -0.000300 0.999800 0.021400
vn 0.014100 0.999800 -0.017000
vn -0.047100 0.998500 -0.026600
vn -0.032700 0.999100 -0.026300
vn 0.017200 0.999800 0.007800
vn 0.002600 0.998300 0.057600
vn 0.027600 0.999600 -0.009500
vn 0.014600 0.998900 -0.045200
vn 0.026200 0.999400 -0.023400
vn -0.020300 0.999700 0.016800
vn -0.018100 0.998400 0.054200
vn 0.017800 0.998200 0.057400
vn 0.023200 0.999700 0.008000
vn -0.047300 0.998800 0.015000
vn 0.022000 0.999800 -0.002900
vn 0.000800 0.999900 -0.010200
vn 0.017700 0.999800 0.005700
vn -0.023200 0.997000 0.073700
vn -0.015300 0.998700 0.048100
vn -0.012300 0.999400 -0.033000
vn -0.059400 0.998100 0.013700
vn 0.029200 0.998800 0.040100
vn 0.065300 0.997700 0.016700
vn 0.016800 0.999700 -0.020300
vn 0.002400 1.000000 -0.007800
vn -0.034900 0.999100 0.022200
vn -0.009100 1.000000 0.002600
vn 0.007400 0.999700 -0.022600
vn 0.014700 0.996600 -0.081200
vn -0.009700 0.993100 -0.117100
vn 0.003600 0.999700 -0.023500
vn 0.010400 0.999900 -0.009600
vn -0.011000 0.999900 0.000600
vn -0.059700 0.997400 0.039400
vn 0.039200 0.997900 0.051200
vn 0.030900 0.999500 0.000900
vn -0.082400 0.993200 -0.082800
vn -0.006000 0.997400 -0.071100
vn 0.075800 0.997000 -0.014200
vn 0.029800 0.999400 -0.015800
vn -0.034800 0.999400 0.002800
vn -0.001500 1.000000 -0.005200
vn 0.007300 0.998400 -0.056400
vn -0.036200 0.996300 -0.077900
vn 0.005000 0.999100 -0.041800
vn 0.067100 0.996900 -0.040200
vn -0.010500 0.999400 -0.033900
vn 0.001700 1.000000 -0.006200
vn -0.027400 0.999600 0.007900
vn -0.048000 0.998400 -0.029900
vn 0.040400 0.998600 -0.035500
vn 0.030800 0.999400 0.013600
vn -0.041900 0.999100 0.009700
vn -0.010000 0.999300 -0.035800
vn 0.041900 0.999100 -0.011500
vn 0.017000 0.998500 0.052200
vn -0.040100 0.999000 0.020200
vn 0.018600 0.999700 -0.018500
vn 0.007700 0.999800 -0.019000
vn -0.044300 0.999000 -0.004400
vn -0.008000 1.000000 0.002800
vn 0.021800 0.999400 0.025300
vn -0.013800 0.999900 -0.006900
vn -0.020600 0.999400 0.029000
vn -0.027600 0.999000 0.035700
vn 0.017000 0.999700 -0.017000
vn 0.011500 0.999800 -0.014700
vn -0.034300 0.999400 -0.005500
vn 0.040300 0.998600 -0.033400
vn -0.010900 0.999100 -0.041600
vn 0.001600 0.999800 -0.017700
vn 0.011700 0.999900 0.012400
vn 0.007400 0.999900 -0.014600
vn 0.006100 1.000000 -0.006500
vn -0.028600 0.999600 0.002500
vn 0.014400 0.697500 0.716500
vn 0.024600 0.688000 0.725300
vn 0.062600 0.997600 0.030400
vn -0.016800 0.709400 0.704600
vn -0.000600 0.694100 0.719900
vn -0.005200 0.643800 0.765200
vn 0.028600 0.693400 0.720000
vn -0.021000 0.675700 0.736900
vn -0.022700 0.748200 0.663100
vn -0.010000 0.741000 0.671500
vn -0.027400 0.744500 0.667100
vn 0.036600 0.726600 0.686000
vn 0.009400 0.735400 0.677600
vn 0.021500 0.704500 0.709400
vn -0.002700 0.743100 0.669200
vn 0.007900 0.717400 0.696700
vn -0.020200 0.712400 0.701500
vn -0.000200 -0.000200 1.000000
vn -0.000100 0.000400 1.000000
vn 0.000500 0.001400 1.000000
vn 0.000000 -0.000700 1.000000
vn -0.000100 0.003500 1.000000
vn -0.000200 -0.000300 1.000000
vn -0.000400 0.001900 1.000000
vn -0.000600 -0.003600 1.000000
vn -0.000300 -0.007700 1.000000
vn 0.000200 -0.004500 1.000000
vn 0.000200 -0.007000 1.000000
vn 0.000600 -0.001500 1.000000
vn 0.000200 0.001600 1.000000
vn 0.000000 -0.001100 1.000000
vn -0.000400 0.000800 1.000000
vn 0.000400 -0.001500 1.000000
usemtl lambert2SG
s 1
f 167/175/159 168/176/160 169/177/161 170/178/162
f 168/176/160 171/179/163 172/180/164 169/177/161
f 173/181/165 172/180/164 171/179/163 174/182/166
f 175/183/167 173/181/165 174/182/166 176/184/168
f 176/184/168 177/185/169 178/186/170 175/183/167
f 179/187/171 178/186/170 177/185/169 180/188/172
f 181/189/173 179/187/171 180/188/172 182/190/174
f 183/191/175 181/189/173 182/190/174 184/192/176
f 184/192/176 185/193/177 186/194/178 183/191/175
f 187/195/179 186/194/178 185/193/177 188/196/180
f 189/197/181 187/195/179 188/196/180 190/198/182
f 191/199/183 189/197/181 190/198/182 192/200/184
f 192/200/184 193/201/185 194/202/186 191/199/183
f 195/203/187 194/202/186 193/201/185 196/204/188
f 195/203/187 196/204/188 197/205/189 198/206/190
f 170/178/162 169/177/161 199/207/191 200/208/192
f 201/209/193 199/207/191 169/177/161 172/180/164
f 202/210/194 201/209/193 172/180/164 173/181/165
f 203/211/195 202/210/194 173/181/165 175/183/167
f 204/212/196 203/211/195 175/183/167 178/186/170
f 205/213/197 204/212/196 178/186/170 179/187/171
f 206/214/198 205/213/197 179/187/171 181/189/173
f 207/215/199 206/214/198 181/189/173 183/191/175
f 208/216/200 207/215/199 183/191/175 186/194/178
f 209/217/201 208/216/200 186/194/178 187/195/179
f 210/218/202 209/217/201 187/195/179 189/197/181
f 211/219/203 210/218/202 189/197/181 191/199/183
f 212/220/204 211/219/203 191/199/183 194/202/186
f 213/221/205 212/220/204 194/202/186 195/203/187
f 198/206/190 214/222/206 213/221/205 195/203/187
f 200/208/192 199/207/191 215/223/207 216/224/208
f 217/225/209 215/223/207 199/207/191 201/209/193
f 218/226/210 217/225/209 201/209/193 202/210/194
f 219/227/211 218/226/210 202/210/194 203/211/195
f 220/228/212 219/227/211 203/211/195 204/212/196
f 221/229/213 220/228/212 204/212/196 205/213/197
f 222/230/214 221/229/213 205/213/197 206/214/198
f 223/231/215 222/230/214 206/214/198 207/215/199
f 224/232/216 223/231/215 207/215/199 208/216/200
f 225/233/217 224/232/216 208/216/200 209/217/201
f 226/234/218 225/233/217 209/217/201 210/218/202
f 227/235/219 226/234/218 210/218/202 211/219/203
f 228/236/220 227/235/219 211/219/203 212/220/204
f 229/237/221 228/236/220 212/220/204 213/221/205
f 214/222/206 230/238/222 229/237/221 213/221/205
f 216/224/208 215/223/207 231/239/223 232/240/224
f 233/241/225 231/239/223 215/223/207 217/225/209
f 234/242/226 233/241/225 217/225/209 218/226/210
f 235/243/227 234/242/226 218/226/210 219/227/211
f 236/244/228 235/243/227 219/227/211 220/228/212
f 237/245/229 236/244/228 220/228/212 221/229/213
f 238/246/230 237/245/229 221/229/213 222/230/214
f 239/247/231 238/246/230 222/230/214 223/231/215
f 240/248/232 239/247/231 223/231/215 224/232/216
f 241/249/233 240/248/232 224/232/216 225/233/217
f 242/250/234 241/249/233 225/233/217 226/234/218
f 243/251/235 242/250/234 226/234/218 227/235/219
f 244/252/236 243/251/235 227/235/219 228/236/220
f 245/253/237 244/252/236 228/236/220 229/237/221
f 230/238/222 246/254/238 245/253/237 229/237/221
f 232/240/224 231/239/223 247/255/239 248/256/240
f 249/257/241 247/255/239 231/239/223 233/241/225
f 250/258/242 249/257/241 233/241/225 234/242/226
f 251/259/243 250/258/242 234/242/226 235/243/227
f 252/260/244 251/259/243 235/243/227 236/244/228
f 253/261/245 252/260/244 236/244/228 237/245/229
f 254/262/246 253/261/245 237/245/229 238/246/230
f 255/263/247 254/262/246 238/246/230 239/247/231
f 256/264/248 255/263/247 239/247/231 240/248/232
f 257/265/249 256/264/248 240/248/232 241/249/233
f 258/266/250 257/265/249 241/249/233 242/250/234
f 259/267/251 258/266/250 242/250/234 243/251/235
f 260/268/252 259/267/251 243/251/235 244/252/236
f 261/269/253 260/268/252 244/252/236 245/253/237
f 246/254/238 262/270/254 261/269/253 245/253/237
f 263/271/255 264/272/256 247/255/239 249/257/241
f 265/273/257 263/271/255 249/257/241 250/258/242
f 266/274/258 265/273/257 250/258/242 251/259/243
f 267/275/259 266/274/258 251/259/243 252/260/244
f 268/276/260 267/275/259 252/260/244 253/261/245
f 269/277/261 268/276/260 253/261/245 254/262/246
f 270/278/262 269/277/261 254/262/246 255/263/247
f 271/279/263 270/278/262 255/263/247 256/264/248
f 272/280/264 271/279/263 256/264/248 257/265/249
f 273/281/265 272/280/264 257/265/249 258/266/250
f 274/282/266 273/281/265 258/266/250 259/267/251
f 275/283/267 274/282/266 259/267/251 260/268/252
f 276/284/268 275/283/267 260/268/252 261/269/253
f 262/270/254 277/285/269 276/284/268 261/269/253
f 278/286/270 264/272/256 279/287/271 280/288/272
f 281/289/273 279/287/271 264/272/256 263/271/255
f 282/290/274 281/289/273 263/271/255 265/273/257
f 283/291/275 282/290/274 265/273/257 266/274/258
f 284/292/276 283/291/275 266/274/258 267/275/259
f 285/293/277 284/292/276 267/275/259 268/276/260
f 286/294/278 285/293/277 268/276/260 269/277/261
f 287/295/279 286/294/278 269/277/261 270/278/262
f 288/296/280 287/295/279 270/278/262 271/279/263
f 289/297/281 288/296/280 271/279/263 272/280/264
f 290/298/282 289/297/281 272/280/264 273/281/265
f 291/299/283 290/298/282 273/281/265 274/282/266
f 292/300/284 291/299/283 274/282/266 275/283/267
f 293/301/285 292/300/284 275/283/267 276/284/268
f 277/285/269 294/302/286 293/301/285 276/284/268
f 280/288/272 279/287/271 295/303/287 296/304/288
f 297/305/289 295/303/287 279/287/271 281/289/273
f 298/306/290 297/305/289 281/289/273 282/290/274
f 299/307/291 298/306/290 282/290/274 283/291/275
f 300/308/292 299/307/291 283/291/275 284/292/276
f 301/309/293 300/308/292 284/292/276 285/293/277
f 302/310/294 301/309/293 285/293/277 286/294/278
f 303/311/295 302/310/294 286/294/278 287/295/279
f 304/312/296 303/311/295 287/295/279 288/296/280
f 305/313/297 304/312/296 288/296/280 289/297/281
f 306/314/298 305/313/297 289/297/281 290/298/282
f 307/315/299 306/314/298 290/298/282 291/299/283
f 308/316/300 307/315/299 291/299/283 292/300/284
f 309/317/301 308/316/300 292/300/284 293/301/285
f 294/302/286 310/318/302 309/317/301 293/301/285
f 296/304/288 295/303/287 311/319/303 312/320/304
f 313/321/305 311/319/303 295/303/287 297/305/289
f 314/322/306 313/321/305 297/305/289 298/306/290
f 315/323/307 314/322/306 298/306/290 299/307/291
f 316/324/308 315/323/307 299/307/291 300/308/292
f 317/325/309 316/324/308 300/308/292 301/309/293
f 318/326/310 317/325/309 301/309/293 302/310/294
f 319/327/311 318/326/310 302/310/294 303/311/295
f 320/328/312 319/327/311 303/311/295 304/312/296
f 321/329/313 320/328/312 304/312/296 305/313/297
f 322/330/314 321/329/313 305/313/297 306/314/298
f 323/331/315 322/330/314 306/314/298 307/315/299
f 324/332/316 323/331/315 307/315/299 308/316/300
f 325/333/317 324/332/316 308/316/300 309/317/301
f 310/318/302 326/334/318 325/333/317 309/317/301
f 312/320/304 311/319/303 327/335/319 328/336/320
f 329/337/321 327/335/319 311/319/303 313/321/305
f 330/338/322 329/337/321 313/321/305 314/322/306
f 331/339/323 330/338/322 314/322/306 315/323/307
f 332/340/324 331/339/323 315/323/307 316/324/308
f 333/341/325 332/340/324 316/324/308 317/325/309
f 334/342/326 333/341/325 317/325/309 318/326/310
f 335/343/327 334/342/326 318/326/310 319/327/311
f 336/344/328 335/343/327 319/327/311 320/328/312
f 337/345/329 336/344/328 320/328/312 321/329/313
f 338/346/330 337/345/329 321/329/313 322/330/314
f 339/347/331 338/346/330 322/330/314 323/331/315
f 340/348/332 339/347/331 323/331/315 324/332/316
f 341/349/333 340/348/332 324/332/316 325/333/317
f 326/334/318 342/350/334 341/349/333 325/333/317
f 343/351/335 344/352/336 327/335/319 329/337/321
f 345/353/337 343/351/335 329/337/321 330/338/322
f 346/354/338 345/353/337 330/338/322 331/339/323
f 347/355/339 346/354/338 331/339/323 332/340/324
f 348/356/340 347/355/339 332/340/324 333/341/325
f 349/357/341 348/356/340 333/341/325 334/342/326
f 350/358/342 349/357/341 334/342/326 335/343/327
f 351/359/343 350/358/342 335/343/327 336/344/328
f 352/360/344 351/359/343 336/344/328 337/345/329
f 353/361/345 352/360/344 337/345/329 338/346/330
f 354/362/346 353/361/345 338/346/330 339/347/331
f 355/363/347 354/362/346 339/347/331 340/348/332
f 356/364/348 355/363/347 340/348/332 341/349/333
f 342/350/334 357/365/349 356/364/348 341/349/333
f 344/352/336 358/366/350 359/367/351 360/368/352
f 345/353/337 361/369/353 362/370/354 343/351/335
f 361/369/353 345/353/337 346/354/338 363/371/355
f 348/356/340 364/372/356 365/373/357 347/355/339
f 364/372/356 348/356/340 349/357/341 366/374/358
f 366/374/358 349/357/341 350/358/342 367/375/359
f 352/360/344 368/376/360 369/377/361 351/359/343
f 368/376/360 352/360/344 353/361/345 370/378/362
f 370/378/362 353/361/345 354/362/346 371/379/363
f 356/364/348 372/380/364 373/381/365 355/363/347
f 362/370/354 358/366/350 344/352/336 343/351/335
f 365/373/357 363/371/355 346/354/338 347/355/339
f 369/377/361 367/375/359 350/358/342 351/359/343
f 373/381/365 371/379/363 354/362/346 355/363/347
f 357/365/349 374/382/366 372/380/364 356/364/348
f 248/256/240 247/255/239 264/272/256 278/286/270
f 360/368/352 328/336/320 327/335/319 344/352/336
f 359/367/351 358/366/350 375/383/367 376/384/368
f 362/370/354 361/369/353 377/385/369 378/386/370
f 361/369/353 363/371/355 379/387/371 377/385/369
f 365/373/357 364/372/356 380/388/372 381/389/373
f 364/372/356 366/374/358 382/390/374 380/388/372
f 366/374/358 367/375/359 383/391/375 382/390/374
f 369/377/361 368/376/360 384/392/376 385/393/377
f 368/376/360 370/378/362 386/394/378 384/392/376
f 370/378/362 371/379/363 387/395/379 386/394/378
f 373/381/365 372/380/364 388/396/380 389/397/381
f 358/366/350 362/370/354 378/386/370 375/383/367
f 363/371/355 365/373/357 381/389/373 379/387/371
f 367/375/359 369/377/361 385/393/377 383/391/375
f 371/379/363 373/381/365 389/397/381 387/395/379
f 372/380/364 374/382/366 390/398/382 388/396/380
