# Blender MTL File: 'env_60x30x30.blend'
# Material Count: 1

newmtl lambert2SG
Ns 96.078431
Ka 0.000000 0.000000 0.000000
Kd 0.000000 0.000000 0.000000
Ks 0.500000 0.500000 0.500000
Ke 0.000000 0.000000 0.000000
Ni 1.000000
d 0.000000
illum 3
map_Kd aquarium_diffuse.png
