# Blender v2.76 (sub 0) OBJ File: 'aquarium.blend'
# www.blender.org
mtllib water_planes.mtl
o Plane
v -24.590960 1.078281 12.540949
v 22.349440 1.078281 12.540949
v -24.590960 37.380775 12.540949
v 22.349440 37.380775 12.540949
v -24.590960 37.380775 -12.262847
v 22.349440 37.380775 -12.262847
vn 0.000000 0.000000 -1.000000
vn 0.000000 -1.000000 0.000000
usemtl water_mat
s off
f 1//1 3//1 4//1 2//1
f 4//2 3//2 5//2 6//2
o aquarium_wall_mesh
v 22.349436 40.102406 12.532127
v 22.349436 0.002106 12.532123
v 22.776772 0.002106 12.532123
v 22.776772 40.102406 12.532127
v -25.068228 0.002106 12.532123
v -24.590960 0.002106 12.532120
v -24.590961 40.102406 12.532127
v -25.068228 40.102406 12.532127
v -25.068228 40.102406 -12.836606
v 22.776772 40.102406 -12.836606
v 22.776772 0.002110 -12.836610
v -25.068228 0.002110 -12.836610
v -24.590961 0.002110 -12.494799
v -24.590961 40.102406 -12.478900
v 22.349436 40.102406 -12.478900
v 22.349436 -0.002107 -12.478904
vt 0.885176 0.376740
vt 0.885176 0.016083
vt 0.894402 0.016084
vt 0.894399 0.376740
vt 0.111958 0.016083
vt 0.121868 0.016083
vt 0.121874 0.376740
vt 0.111966 0.376740
vt 0.666436 0.374393
vt 0.338822 0.374393
vt 0.340465 0.023382
vt 0.668144 0.023382
vt 0.123154 0.023382
vt 0.123154 0.374393
vt 0.887944 0.023382
vt 0.887944 0.374393
vt 0.341633 0.016075
vt 0.341638 0.376741
vt 0.664408 0.376741
vt 0.664408 0.016075
vt 0.664408 0.390256
vt 0.341644 0.390256
vt 0.885176 0.390258
vt 0.121874 0.390258
vn 0.000000 -0.000000 1.000000
vn 0.000000 0.000000 -1.000000
vn 1.000000 0.000000 0.000000
vn -1.000000 -0.000000 0.000000
vn -0.000200 -0.000200 1.000000
vn 0.301500 0.904500 0.301500
vn -0.301600 0.904500 0.301500
vn 0.577400 0.577300 -0.577300
vn -0.577400 0.577300 -0.577300
vn -0.577300 0.577400 0.577400
vn 0.577400 0.577400 0.577300
usemtl lambert2SG
s off
f 7/1/3 8/2/3 9/3/3 10/4/3
f 11/5/3 12/6/3 13/7/3 14/8/3
f 15/9/4 16/10/4 17/11/4 18/12/4
f 9/13/5 17/11/5 16/10/5 10/14/5
f 15/9/6 18/12/6 11/15/6 14/16/6
f 13/7/5 12/6/5 19/17/5 20/18/5
f 8/2/6 7/1/6 21/19/6 22/20/6
f 21/19/7 20/18/7 19/17/7 22/20/7
s 1
f 20/18/8 21/19/9 16/21/10 15/22/11
f 7/1/12 10/23/13 16/21/10 21/19/9
f 14/24/12 13/7/13 20/18/8 15/22/11
o stone2_stone.002
v -8.345264 1.525598 3.053839
v -8.626703 1.546769 2.943942
v -8.629196 1.385634 3.147796
v -8.224126 1.387741 3.261721
v -9.020690 1.550060 2.759993
v -9.210118 1.366724 3.009245
v -9.113747 0.985268 3.027727
v -8.450024 1.071861 3.266723
v -7.952395 1.072805 3.417399
v -9.408205 1.516314 2.577320
v -9.677177 1.327160 2.868913
v -9.592141 1.408277 2.374516
v -9.880576 1.250148 2.429435
v -9.957051 0.835327 2.304519
v -9.704284 0.910885 2.879022
v -9.387840 0.494102 2.605830
v -8.859069 0.568425 2.836640
v -9.631096 0.477463 2.035774
v -9.259727 0.404574 1.881768
v -9.034657 0.322609 2.281305
v -8.695558 0.285789 2.564023
v -8.266772 0.657673 3.159378
v -7.770858 0.688292 3.337410
v -8.150401 0.374554 2.867254
v -7.786688 0.436425 3.083361
v -8.025322 0.322170 2.547785
v -7.617781 0.339726 2.912091
v -8.452785 0.282490 2.249569
v -8.139621 0.261884 2.009801
v -7.838566 0.368095 2.294359
v -7.528223 0.372860 2.625223
v -8.807189 0.335198 1.978142
v -9.184938 0.389548 1.550429
v -8.934938 0.425270 1.329470
v -8.499250 0.301476 1.735489
v -8.167542 0.244791 1.573046
v -7.846655 0.284373 1.834149
v -8.566050 0.498043 1.284069
v -8.302953 0.599908 1.222708
v -7.980673 0.458685 1.368917
v -7.686255 0.399478 1.601503
v -7.664731 0.381918 2.066887
v -7.513734 0.548714 2.286498
v -7.527306 0.560103 1.831625
v -7.475970 0.697992 2.028728
v -7.478572 0.856476 1.669043
v -7.355034 0.846950 2.044999
v -7.687721 0.747274 1.379316
v -7.741700 1.082525 1.296009
v -7.482650 1.114973 1.664877
v -7.327559 1.082601 2.089426
v -7.994852 0.792728 1.142997
v -8.403858 0.855389 1.003512
v -8.493335 1.172258 0.936627
v -8.074588 1.189803 1.020495
v -8.136228 1.465327 1.132146
v -7.818762 1.421179 1.375311
v -8.530968 1.435369 1.060560
v -8.530108 1.575817 1.230816
v -8.262312 1.675290 1.318503
v -7.973859 1.706200 1.546027
v -7.581803 1.387814 1.724362
v -7.440548 1.356550 2.120959
v -7.746630 1.654466 1.860467
v -7.612243 1.570053 2.129439
v -7.919371 1.751970 2.126880
v -7.672069 1.660040 2.393231
v -8.200123 1.760484 1.815501
v -8.455351 1.733151 2.131391
v -8.120160 1.770093 2.436379
v -7.840915 1.712445 2.700202
v -8.505421 1.699874 1.554530
v -8.787094 1.567895 1.353515
v -9.094426 1.528501 1.602887
v -8.794698 1.655279 1.842416
v -9.056054 1.575754 2.170114
v -8.746737 1.656971 2.459747
v -9.385985 1.442277 2.004359
v -8.396658 1.690849 2.719987
v -8.104829 1.645665 2.939636
v -9.625401 1.265076 1.691335
v -9.308243 1.356938 1.287371
v -9.362057 0.991293 0.900057
v -9.615635 0.907322 1.287939
v -8.929734 1.390325 1.133021
v -8.942086 1.082052 0.896261
v -8.854144 0.756241 0.874544
v -9.228806 0.607638 0.869561
v -9.452198 0.554596 1.229128
v -7.469319 1.356597 2.543329
v -7.635189 1.387089 2.891348
v -7.439911 0.969579 2.950661
v -7.347259 1.021375 2.547521
v -7.903926 1.374280 3.134266
v -7.634820 1.006164 3.254209
v -7.475704 0.609155 3.177280
v -7.402030 0.581305 2.850732
v -7.381323 0.704179 2.476906
vt 0.347226 0.429281
vt 0.413770 0.409449
vt 0.402218 0.470650
vt 0.323698 0.478732
vt 0.509903 0.403918
vt 0.513729 0.487542
vt 0.494142 0.560398
vt 0.362640 0.534853
vt 0.283139 0.530913
vt 0.583012 0.448310
vt 0.575582 0.509312
vt 0.624974 0.469763
vt 0.626802 0.515451
vt 0.648360 0.563702
vt 0.579565 0.560077
vt 0.588670 0.650047
vt 0.466151 0.671440
vt 0.693533 0.626349
vt 0.738640 0.692427
vt 0.607441 0.829820
vt 0.451036 0.803052
vt 0.326713 0.611956
vt 0.253838 0.578264
vt 0.291342 0.692928
vt 0.242471 0.626952
vt 0.226577 0.757289
vt 0.204086 0.638498
vt 0.326512 0.918144
vt 0.139312 0.955493
vt 0.124913 0.774725
vt 0.155963 0.658218
vt 0.709615 1.062879
vt 0.794082 0.842341
vt 0.912387 1.029149
vt 0.807098 0.661803
vt 0.884963 0.647924
vt 0.956689 0.815753
vt 1.080747 0.972887
vt 1.098770 0.792813
vt 1.234601 0.909273
vt 0.980809 0.652818
vt 1.065127 0.619661
vt 1.182602 0.688233
vt 1.319821 0.785526
vt 0.012842 0.770452
vt 0.063174 0.668654
vt -0.045875 0.905130
vt -0.217364 0.820701
vt -0.107607 0.701994
vt -0.033984 0.635233
vt -0.177763 0.563553
vt -0.025950 0.567660
vt -0.359476 0.614471
vt -0.382311 0.403076
vt -0.163288 0.451482
vt -0.006984 0.496522
vt 1.165182 0.536139
vt 1.329930 0.575977
vt 1.023433 0.526789
vt 0.986101 0.449040
vt 1.103405 0.409559
vt 1.282664 0.398983
vt 1.062903 0.320944
vt 1.204143 0.232530
vt 0.956944 0.381200
vt 0.930624 0.325264
vt 0.986348 0.245716
vt 1.053657 0.106031
vt -0.115365 0.335721
vt 0.019156 0.410446
vt -0.285071 0.210689
vt -0.114208 0.065609
vt -0.010791 0.229862
vt 0.053742 0.329948
vt 0.125853 0.223299
vt 0.137195 0.345159
vt 0.105777 0.028281
vt 0.332852 0.095319
vt 0.250874 0.266249
vt 0.219849 0.368612
vt 0.865844 0.235360
vt 0.863526 0.066963
vt 0.856666 0.348065
vt 0.768882 0.380491
vt 0.736641 0.275815
vt 0.663588 0.116516
vt 0.632727 0.345966
vt 0.506682 0.256504
vt 0.678230 0.427823
vt 0.360268 0.333465
vt 0.292838 0.400136
vt 0.727352 0.484970
vt 0.804408 0.453790
vt 0.844617 0.517796
vt 0.788053 0.535163
vt 0.870668 0.420782
vt 0.897289 0.488677
vt 0.918096 0.544359
vt 0.864490 0.559065
vt 0.816360 0.584730
vt 0.125942 0.444675
vt 0.203137 0.457561
vt 0.183987 0.536597
vt 0.108977 0.523581
vt 0.265656 0.470984
vt 0.235731 0.536024
vt 0.214510 0.586019
vt 0.172756 0.601066
vt 0.098418 0.598765
vn -0.087600 0.812700 0.576100
vn -0.186800 0.868000 0.460100
vn -0.256300 0.499000 0.827800
vn -0.024100 0.560600 0.827800
vn -0.207600 0.925500 0.316900
vn -0.282200 0.513500 0.810400
vn -0.273700 -0.256100 0.927100
vn -0.303800 -0.117700 0.945400
vn 0.099800 0.163600 0.981500
vn -0.326600 0.937300 0.121400
vn -0.600700 0.501400 0.622700
vn -0.448400 0.890600 -0.076400
vn -0.857100 0.511300 0.063200
vn -0.963300 -0.261600 0.059500
vn -0.615600 -0.321500 0.719500
vn -0.363900 -0.807000 0.465000
vn -0.249700 -0.675400 0.693900
vn -0.609700 -0.792000 -0.032500
vn -0.240500 -0.969500 -0.047300
vn -0.190900 -0.974400 0.118400
vn -0.130400 -0.944100 0.302600
vn -0.269100 -0.566100 0.779100
vn 0.124900 -0.397200 0.909200
vn -0.129100 -0.892700 0.431800
vn -0.024800 -0.822800 0.567800
vn 0.064600 -0.994600 0.080700
vn 0.338300 -0.901600 0.269600
vn -0.008500 -0.999700 0.022400
vn 0.049900 -0.996600 0.065800
vn 0.250700 -0.968000 0.006800
vn 0.581400 -0.810800 -0.067000
vn -0.104400 -0.992000 -0.071500
vn -0.201200 -0.967400 -0.153900
vn -0.025400 -0.936600 -0.349500
vn -0.088600 -0.984800 -0.149400
vn 0.064700 -0.935400 -0.347600
vn 0.330300 -0.941500 -0.066500
vn 0.092500 -0.806900 -0.583500
vn 0.148500 -0.643000 -0.751400
vn 0.290800 -0.665400 -0.687500
vn 0.616200 -0.667300 -0.418300
vn 0.571500 -0.820600 -0.002400
vn 0.753200 -0.645200 -0.128500
vn 0.835900 -0.513200 -0.194500
vn 0.860600 -0.492000 -0.131800
vn 0.894700 -0.166800 -0.414500
vn 0.951400 -0.257600 -0.168900
vn 0.702600 -0.259600 -0.662500
vn 0.719000 0.120900 -0.684400
vn 0.875300 0.187500 -0.445700
vn 0.979500 0.157400 -0.125700
vn 0.394400 -0.349000 -0.850100
vn 0.231000 -0.366300 -0.901400
vn 0.115000 0.213800 -0.970100
vn 0.420900 0.140000 -0.896200
vn 0.341900 0.563200 -0.752300
vn 0.654600 0.501100 -0.566100
vn -0.045700 0.626500 -0.778100
vn -0.142800 0.834200 -0.532600
vn 0.097200 0.874100 -0.475900
vn 0.372100 0.863700 -0.340100
vn 0.788700 0.490800 -0.370200
vn 0.869400 0.484400 -0.097500
vn 0.559400 0.801500 -0.211300
vn 0.702800 0.705500 -0.091700
vn 0.238700 0.970300 -0.040000
vn 0.590400 0.802900 0.082300
vn 0.008200 0.996600 -0.082200
vn -0.158200 0.987300 0.013100
vn 0.010100 0.995900 0.090200
vn 0.378800 0.869000 0.318400
vn -0.173500 0.967700 -0.183200
vn -0.268000 0.893100 -0.361200
vn -0.362100 0.913300 -0.186500
vn -0.269400 0.960800 -0.066000
vn -0.287600 0.957400 -0.025600
vn -0.206700 0.972200 0.109700
vn -0.410800 0.902600 -0.128800
vn -0.143300 0.953600 0.264700
vn 0.117600 0.856100 0.503200
vn -0.730500 0.625800 -0.273400
vn -0.493400 0.750500 -0.439800
vn -0.536100 0.248100 -0.806900
vn -0.899000 0.027000 -0.437200
vn -0.234000 0.737800 -0.633200
vn -0.056600 0.338900 -0.939100
vn 0.166800 -0.380500 -0.909600
vn -0.271100 -0.545300 -0.793200
vn -0.605600 -0.698300 -0.381600
vn 0.848400 0.492800 0.193300
vn 0.686000 0.568800 0.453800
vn 0.899800 0.253600 0.354900
vn 0.977000 0.155700 0.146000
vn 0.419800 0.642500 0.641100
vn 0.638500 0.305900 0.706200
vn 0.705400 -0.331900 0.626400
vn 0.934600 -0.314600 0.165900
vn 0.955900 -0.291500 -0.035300
usemtl lambert4SG.002
s 1
f 23/25/14 24/26/15 25/27/16 26/28/17
f 24/26/15 27/29/18 28/30/19 25/27/16
f 25/27/16 28/30/19 29/31/20 30/32/21
f 26/28/17 25/27/16 30/32/21 31/33/22
f 27/29/18 32/34/23 33/35/24 28/30/19
f 32/34/23 34/36/25 35/37/26 33/35/24
f 33/35/24 35/37/26 36/38/27 37/39/28
f 28/30/19 33/35/24 37/39/28 29/31/20
f 29/31/20 37/39/28 38/40/29 39/41/30
f 37/39/28 36/38/27 40/42/31 38/40/29
f 38/40/29 40/42/31 41/43/32 42/44/33
f 39/41/30 38/40/29 42/44/33 43/45/34
f 31/33/22 30/32/21 44/46/35 45/47/36
f 30/32/21 29/31/20 39/41/30 44/46/35
f 44/46/35 39/41/30 43/45/34 46/48/37
f 45/47/36 44/46/35 46/48/37 47/49/38
f 47/49/38 46/48/37 48/50/39 49/51/40
f 46/48/37 43/45/34 50/52/41 48/50/39
f 48/50/39 50/52/41 51/53/42 52/54/43
f 49/51/40 48/50/39 52/54/43 53/55/44
f 43/56/34 42/44/33 54/57/45 50/58/41
f 42/44/33 41/43/32 55/59/46 54/57/45
f 54/57/45 55/59/46 56/60/47 57/61/48
f 50/58/41 54/57/45 57/61/48 51/62/42
f 51/62/42 57/61/48 58/63/49 59/64/50
f 57/61/48 56/60/47 60/65/51 58/63/49
f 58/63/49 60/65/51 61/66/52 62/67/53
f 59/64/50 58/63/49 62/67/53 63/68/54
f 53/55/44 52/54/43 64/69/55 65/70/56
f 52/54/43 51/53/42 59/71/50 64/69/55
f 64/69/55 59/71/50 63/72/54 66/73/57
f 65/70/56 64/69/55 66/73/57 67/74/58
f 67/74/58 66/73/57 68/75/59 69/76/60
f 66/73/57 63/72/54 70/77/61 68/75/59
f 68/75/59 70/77/61 71/78/62 72/79/63
f 69/76/60 68/75/59 72/79/63 73/80/64
f 63/68/54 62/67/53 74/81/65 70/82/61
f 62/67/53 61/66/52 75/83/66 74/81/65
f 74/81/65 75/83/66 76/84/67 77/85/68
f 70/82/61 74/81/65 77/85/68 71/86/62
f 71/86/62 77/85/68 78/87/69 79/88/70
f 77/85/68 76/84/67 80/89/71 78/87/69
f 78/87/69 80/89/71 81/90/72 82/91/73
f 79/88/70 78/87/69 82/91/73 83/92/74
f 73/80/64 72/79/63 84/93/75 85/94/76
f 72/79/63 71/78/62 79/95/70 84/93/75
f 84/93/75 79/95/70 83/96/74 86/97/77
f 85/94/76 84/93/75 86/97/77 87/98/78
f 87/98/78 86/97/77 88/99/79 89/100/80
f 86/97/77 83/96/74 90/101/81 88/99/79
f 88/99/79 90/101/81 91/102/82 92/103/83
f 89/100/80 88/99/79 92/103/83 93/104/84
f 83/92/74 82/91/73 94/105/85 90/106/81
f 82/91/73 81/90/72 95/107/86 94/105/85
f 94/105/85 95/107/86 96/108/87 97/109/88
f 90/106/81 94/105/85 97/109/88 91/110/82
f 91/110/82 97/109/88 98/111/89 99/112/90
f 97/109/88 96/108/87 100/113/91 98/111/89
f 98/111/89 100/113/91 34/36/25 32/34/23
f 99/112/90 98/111/89 32/34/23 27/29/18
f 93/104/84 92/103/83 101/114/92 102/115/93
f 92/103/83 91/102/82 99/112/90 101/114/92
f 101/114/92 99/112/90 27/29/18 24/26/15
f 24/26/15 23/25/14 102/115/93 101/114/92
f 34/36/25 100/113/91 103/116/94 35/37/26
f 100/113/91 96/108/87 104/117/95 103/116/94
f 103/116/94 104/117/95 105/118/96 106/119/97
f 35/37/26 103/116/94 106/119/97 36/38/27
f 96/108/87 95/107/86 107/120/98 104/117/95
f 95/107/86 81/90/72 80/89/71 107/120/98
f 107/120/98 80/89/71 76/84/67 108/121/99
f 104/117/95 107/120/98 108/121/99 105/118/96
f 105/118/96 108/121/99 109/122/100 110/123/101
f 108/121/99 76/84/67 75/83/66 109/122/100
f 109/122/100 75/83/66 61/66/52 60/65/51
f 110/123/101 109/122/100 60/65/51 56/60/47
f 36/38/27 106/119/97 111/124/102 40/42/31
f 106/119/97 105/118/96 110/123/101 111/124/102
f 111/124/102 110/123/101 56/60/47 55/59/46
f 40/42/31 111/124/102 55/59/46 41/43/32
f 87/98/78 89/100/80 112/125/103 85/94/76
f 89/100/80 93/104/84 113/126/104 112/125/103
f 112/125/103 113/126/104 114/127/105 115/128/106
f 85/94/76 112/125/103 115/128/106 73/80/64
f 93/104/84 102/115/93 116/129/107 113/126/104
f 102/115/93 23/25/14 26/28/17 116/129/107
f 116/129/107 26/28/17 31/33/22 117/130/108
f 113/126/104 116/129/107 117/130/108 114/127/105
f 114/127/105 117/130/108 118/131/109 119/132/110
f 117/130/108 31/33/22 45/47/36 118/131/109
f 118/131/109 45/47/36 47/49/38 49/51/40
f 119/132/110 118/131/109 49/51/40 53/55/44
f 73/80/64 115/128/106 120/133/111 69/76/60
f 115/128/106 114/127/105 119/132/110 120/133/111
f 120/133/111 119/132/110 53/55/44 65/70/56
f 69/76/60 120/133/111 65/70/56 67/74/58
o stone_stone.001
v -9.173203 2.362329 -0.044795
v -9.880395 2.414897 0.205575
v -9.554167 2.014797 0.592644
v -8.608143 2.020027 0.149156
v -10.919262 2.423069 0.499506
v -10.870574 1.967843 1.275324
v -10.659501 1.020683 1.153614
v -9.024465 1.235692 0.525249
v -7.844876 1.238037 0.000563
v -11.943900 2.339277 0.785326
v -11.975935 1.869604 1.769822
v -12.618708 2.071020 0.702860
v -13.071506 1.678382 1.274259
v -13.417968 0.648377 1.163696
v -12.010457 0.835987 1.832820
v -11.859358 -0.198891 0.805837
v -10.491172 -0.014346 0.381159
v -13.241777 -0.240205 0.129629
v -12.794005 -0.421189 -0.762574
v -11.722553 -0.624710 -0.377235
v -10.626485 -0.716134 -0.396489
v -8.854403 0.207257 0.026089
v -7.633629 0.283285 -0.444416
v -9.109954 -0.495731 -0.711689
v -8.075768 -0.342103 -0.896055
v -9.393532 -0.625799 -1.514981
v -8.036425 -0.582210 -1.492041
v -10.680788 -0.724327 -1.381408
v -10.481589 -0.775491 -2.340266
v -9.454015 -0.511767 -2.294305
v -8.333823 -0.499937 -2.176417
v -11.787282 -0.593451 -1.316097
v -13.191341 -0.458500 -1.506535
v -13.080292 -0.369801 -2.327519
v -11.602591 -0.677184 -2.271892
v -11.243031 -0.817934 -3.115566
v -10.216269 -0.719652 -3.145868
v -12.460881 -0.189104 -3.011638
v -12.066154 0.063828 -3.554010
v -11.223279 -0.286832 -3.802449
v -10.292542 -0.433844 -3.843365
v -9.496648 -0.477446 -3.003891
v -8.856447 -0.063290 -2.836373
v -9.620337 -0.035008 -3.669007
v -9.203928 0.307371 -3.381999
v -9.792688 0.700890 -4.053592
v -8.950285 0.677235 -3.547742
v -10.655972 0.429740 -4.258454
v -10.892621 1.262173 -4.327359
v -9.807111 1.342742 -4.054803
v -8.826548 1.262360 -3.508867
v -11.616653 0.542602 -4.203916
v -12.611565 0.698191 -3.802061
v -12.888255 1.484981 -3.782486
v -11.965327 1.528545 -4.304650
v -11.899899 2.212676 -3.994811
v -10.908685 2.103054 -4.053265
v -12.757786 2.138290 -3.488539
v -12.479795 2.487024 -3.170038
v -11.834291 2.734016 -3.439992
v -10.922977 2.810765 -3.480736
v -9.896852 2.020208 -3.782079
v -8.987654 1.942580 -3.266208
v -9.985608 2.682310 -3.258788
v -9.296487 2.472710 -2.971565
v -9.877708 2.924412 -2.477815
v -8.980685 2.696151 -2.378806
v -10.910671 2.945554 -2.607128
v -10.877445 2.877686 -1.599287
v -9.752566 2.969412 -1.570353
v -8.799630 2.826271 -1.527948
v -11.907930 2.795058 -2.601881
v -12.763475 2.467353 -2.522333
v -12.936120 2.369536 -1.554898
v -11.984134 2.684328 -1.591390
v -11.943252 2.486866 -0.551417
v -10.891915 2.688529 -0.509335
v -12.832233 2.155443 -0.327284
v -9.811706 2.772650 -0.588644
v -8.906829 2.660456 -0.649668
v -13.790201 1.715449 -0.526786
v -13.850036 1.943543 -1.800638
v -14.579871 1.035642 -2.441013
v -14.426678 0.827143 -1.300585
v -13.389408 2.026444 -2.705076
v -13.796947 1.260998 -3.129876
v -13.666963 0.452005 -3.313436
v -14.379008 0.083023 -2.714613
v -14.215062 -0.048683 -1.676389
v -8.356086 1.942697 -2.425907
v -8.102804 2.018408 -1.502757
v -7.639615 0.981725 -1.708304
v -8.119940 1.110334 -2.616169
v -8.213411 1.986603 -0.610097
v -7.513086 1.072566 -0.821570
v -7.338998 0.086786 -1.224406
v -7.730653 0.017636 -1.957554
v -8.298573 0.322732 -2.693554
vt 0.347226 0.429281
vt 0.413770 0.409449
vt 0.402218 0.470650
vt 0.323698 0.478732
vt 0.509903 0.403918
vt 0.513729 0.487542
vt 0.494142 0.560398
vt 0.362640 0.534853
vt 0.283139 0.530913
vt 0.583012 0.448310
vt 0.575582 0.509312
vt 0.624974 0.469763
vt 0.626802 0.515451
vt 0.648360 0.563702
vt 0.579565 0.560077
vt 0.588670 0.650047
vt 0.466151 0.671440
vt 0.693533 0.626349
vt 0.738640 0.692427
vt 0.607441 0.829820
vt 0.451036 0.803052
vt 0.326713 0.611956
vt 0.253838 0.578264
vt 0.291342 0.692928
vt 0.242471 0.626952
vt 0.226577 0.757289
vt 0.204086 0.638498
vt 0.326512 0.918144
vt 0.139312 0.955493
vt 0.124913 0.774725
vt 0.155963 0.658218
vt 0.709615 1.062879
vt 0.794082 0.842341
vt 0.912387 1.029149
vt 0.807098 0.661803
vt 0.884963 0.647924
vt 0.956689 0.815753
vt 1.080747 0.972887
vt 1.098770 0.792813
vt 1.234601 0.909273
vt 0.980809 0.652818
vt 1.065127 0.619661
vt 1.182602 0.688233
vt 1.319821 0.785526
vt 0.012842 0.770452
vt 0.063174 0.668654
vt -0.045875 0.905130
vt -0.217364 0.820701
vt -0.107607 0.701994
vt -0.033984 0.635233
vt -0.177763 0.563553
vt -0.025950 0.567660
vt -0.359476 0.614471
vt -0.382311 0.403076
vt -0.163288 0.451482
vt -0.006984 0.496522
vt 1.165182 0.536139
vt 1.329930 0.575977
vt 1.023433 0.526789
vt 0.986101 0.449040
vt 1.103405 0.409559
vt 1.282664 0.398983
vt 1.062903 0.320944
vt 1.204143 0.232530
vt 0.956944 0.381200
vt 0.930624 0.325264
vt 0.986348 0.245716
vt 1.053657 0.106031
vt -0.115365 0.335721
vt 0.019156 0.410446
vt -0.285071 0.210689
vt -0.114208 0.065609
vt -0.010791 0.229862
vt 0.053742 0.329948
vt 0.125853 0.223299
vt 0.137195 0.345159
vt 0.105777 0.028281
vt 0.332852 0.095319
vt 0.250874 0.266249
vt 0.219849 0.368612
vt 0.865844 0.235360
vt 0.863526 0.066963
vt 0.856666 0.348065
vt 0.768882 0.380491
vt 0.736641 0.275815
vt 0.663588 0.116516
vt 0.632727 0.345966
vt 0.506682 0.256504
vt 0.678230 0.427823
vt 0.360268 0.333465
vt 0.292838 0.400136
vt 0.727352 0.484970
vt 0.804408 0.453790
vt 0.844617 0.517796
vt 0.788053 0.535163
vt 0.870668 0.420782
vt 0.897289 0.488677
vt 0.918096 0.544359
vt 0.864490 0.559065
vt 0.816360 0.584730
vt 0.125942 0.444675
vt 0.203137 0.457561
vt 0.183987 0.536597
vt 0.108977 0.523581
vt 0.265656 0.470984
vt 0.235731 0.536024
vt 0.214510 0.586019
vt 0.172756 0.601066
vt 0.098418 0.598765
vn 0.310300 0.812700 0.493200
vn 0.159400 0.868000 0.470200
vn 0.347300 0.499000 0.794000
vn 0.522900 0.560600 0.642200
vn 0.050100 0.925500 0.375500
vn 0.316200 0.513500 0.797700
vn 0.398900 -0.256100 0.880500
vn 0.388200 -0.117700 0.914000
vn 0.717100 0.163600 0.677400
vn -0.167800 0.937300 0.305400
vn -0.047500 0.501400 0.863900
vn -0.389200 0.890600 0.235400
vn -0.607200 0.511300 0.608100
vn -0.690100 -0.261600 0.674800
vn 0.004500 -0.321500 0.946900
vn 0.028700 -0.807000 0.589800
vn 0.264700 -0.675400 0.688300
vn -0.482600 -0.792000 0.374000
vn -0.212900 -0.969500 0.121400
vn -0.067000 -0.974400 0.214400
vn 0.099200 -0.944100 0.314300
vn 0.305700 -0.566100 0.765500
vn 0.688900 -0.397200 0.606400
vn 0.184600 -0.892700 0.411100
vn 0.352400 -0.822800 0.445800
vn 0.101600 -0.994600 0.018800
vn 0.432300 -0.901600 -0.017100
vn 0.008200 -0.999700 0.022500
vn 0.080800 -0.996600 0.017100
vn 0.194100 -0.968100 -0.158700
vn 0.396200 -0.810800 -0.430800
vn -0.125700 -0.992000 0.014200
vn -0.252800 -0.967400 0.015100
vn -0.247700 -0.936600 -0.247900
vn -0.164800 -0.984800 -0.055100
vn -0.178300 -0.935400 -0.305300
vn 0.206500 -0.941500 -0.266300
vn -0.311400 -0.806900 -0.502000
vn -0.378900 -0.643000 -0.665600
vn -0.229400 -0.665400 -0.710300
vn 0.192800 -0.667300 -0.719400
vn 0.430900 -0.820600 -0.375400
vn 0.485900 -0.645200 -0.589600
vn 0.505400 -0.513200 -0.693700
vn 0.565100 -0.492000 -0.662300
vn 0.406000 -0.166800 -0.898500
vn 0.609500 -0.257600 -0.749700
vn 0.098500 -0.259600 -0.960700
vn 0.096600 0.120900 -0.987900
vn 0.371000 0.187500 -0.909500
vn 0.659000 0.157400 -0.735500
vn -0.257300 -0.349000 -0.901100
vn -0.414400 -0.366300 -0.833100
vn -0.547200 0.213800 -0.809200
vn -0.267500 0.140000 -0.953300
vn -0.233000 0.563200 -0.792800
vn 0.125200 0.501100 -0.856300
vn -0.543300 0.626500 -0.558900
vn -0.456200 0.834200 -0.309700
vn -0.237600 0.874100 -0.423600
vn 0.059200 0.863700 -0.500600
vn 0.354800 0.490800 -0.795800
vn 0.594100 0.484400 -0.642200
vn 0.285100 0.801500 -0.525600
vn 0.471800 0.705400 -0.528900
vn 0.154500 0.970300 -0.186400
vn 0.500500 0.802900 -0.323700
vn -0.047500 0.996600 -0.067600
vn -0.111200 0.987300 0.113300
vn 0.066600 0.995900 0.061700
vn 0.494800 0.869000 -0.006700
vn -0.251000 0.967700 -0.025200
vn -0.439000 0.893100 -0.098100
vn -0.395900 0.913300 0.095600
vn -0.247000 0.960800 0.126100
vn -0.234400 0.957400 0.168600
vn -0.084700 0.972200 0.218100
vn -0.395100 0.902600 0.171100
vn 0.064600 0.953600 0.294000
vn 0.418000 0.856100 0.303800
vn -0.731500 0.625800 0.270600
vn -0.660800 0.750500 -0.010200
vn -0.933200 0.248100 -0.260100
vn -0.966100 0.027000 0.256900
vn -0.591000 0.737800 -0.326200
vn -0.656700 0.338900 -0.673700
vn -0.468400 -0.380500 -0.797400
vn -0.723700 -0.545300 -0.423000
vn -0.707700 -0.698300 0.107100
vn 0.768400 0.492800 -0.408400
vn 0.815800 0.568800 -0.105100
vn 0.912900 0.253600 -0.319700
vn 0.834700 0.155700 -0.528200
vn 0.736800 0.642500 0.210600
vn 0.944900 0.305900 0.117000
vn 0.943200 -0.331900 0.012800
vn 0.815700 -0.314600 -0.485500
vn 0.700300 -0.291500 -0.651600
usemtl lambert4SG.001
s 1
f 121/134/112 122/135/113 123/136/114 124/137/115
f 122/135/113 125/138/116 126/139/117 123/136/114
f 123/136/114 126/139/117 127/140/118 128/141/119
f 124/137/115 123/136/114 128/141/119 129/142/120
f 125/138/116 130/143/121 131/144/122 126/139/117
f 130/143/121 132/145/123 133/146/124 131/144/122
f 131/144/122 133/146/124 134/147/125 135/148/126
f 126/139/117 131/144/122 135/148/126 127/140/118
f 127/140/118 135/148/126 136/149/127 137/150/128
f 135/148/126 134/147/125 138/151/129 136/149/127
f 136/149/127 138/151/129 139/152/130 140/153/131
f 137/150/128 136/149/127 140/153/131 141/154/132
f 129/142/120 128/141/119 142/155/133 143/156/134
f 128/141/119 127/140/118 137/150/128 142/155/133
f 142/155/133 137/150/128 141/154/132 144/157/135
f 143/156/134 142/155/133 144/157/135 145/158/136
f 145/158/136 144/157/135 146/159/137 147/160/138
f 144/157/135 141/154/132 148/161/139 146/159/137
f 146/159/137 148/161/139 149/162/140 150/163/141
f 147/160/138 146/159/137 150/163/141 151/164/142
f 141/165/132 140/153/131 152/166/143 148/167/139
f 140/153/131 139/152/130 153/168/144 152/166/143
f 152/166/143 153/168/144 154/169/145 155/170/146
f 148/167/139 152/166/143 155/170/146 149/171/140
f 149/171/140 155/170/146 156/172/147 157/173/148
f 155/170/146 154/169/145 158/174/149 156/172/147
f 156/172/147 158/174/149 159/175/150 160/176/151
f 157/173/148 156/172/147 160/176/151 161/177/152
f 151/164/142 150/163/141 162/178/153 163/179/154
f 150/163/141 149/162/140 157/180/148 162/178/153
f 162/178/153 157/180/148 161/181/152 164/182/155
f 163/179/154 162/178/153 164/182/155 165/183/156
f 165/183/156 164/182/155 166/184/157 167/185/158
f 164/182/155 161/181/152 168/186/159 166/184/157
f 166/184/157 168/186/159 169/187/160 170/188/161
f 167/185/158 166/184/157 170/188/161 171/189/162
f 161/177/152 160/176/151 172/190/163 168/191/159
f 160/176/151 159/175/150 173/192/164 172/190/163
f 172/190/163 173/192/164 174/193/165 175/194/166
f 168/191/159 172/190/163 175/194/166 169/195/160
f 169/195/160 175/194/166 176/196/167 177/197/168
f 175/194/166 174/193/165 178/198/169 176/196/167
f 176/196/167 178/198/169 179/199/170 180/200/171
f 177/197/168 176/196/167 180/200/171 181/201/172
f 171/189/162 170/188/161 182/202/173 183/203/174
f 170/188/161 169/187/160 177/204/168 182/202/173
f 182/202/173 177/204/168 181/205/172 184/206/175
f 183/203/174 182/202/173 184/206/175 185/207/176
f 185/207/176 184/206/175 186/208/177 187/209/178
f 184/206/175 181/205/172 188/210/179 186/208/177
f 186/208/177 188/210/179 189/211/180 190/212/181
f 187/209/178 186/208/177 190/212/181 191/213/182
f 181/201/172 180/200/171 192/214/183 188/215/179
f 180/200/171 179/199/170 193/216/184 192/214/183
f 192/214/183 193/216/184 194/217/185 195/218/186
f 188/215/179 192/214/183 195/218/186 189/219/180
f 189/219/180 195/218/186 196/220/187 197/221/188
f 195/218/186 194/217/185 198/222/189 196/220/187
f 196/220/187 198/222/189 132/145/123 130/143/121
f 197/221/188 196/220/187 130/143/121 125/138/116
f 191/213/182 190/212/181 199/223/190 200/224/191
f 190/212/181 189/211/180 197/221/188 199/223/190
f 199/223/190 197/221/188 125/138/116 122/135/113
f 122/135/113 121/134/112 200/224/191 199/223/190
f 132/145/123 198/222/189 201/225/192 133/146/124
f 198/222/189 194/217/185 202/226/193 201/225/192
f 201/225/192 202/226/193 203/227/194 204/228/195
f 133/146/124 201/225/192 204/228/195 134/147/125
f 194/217/185 193/216/184 205/229/196 202/226/193
f 193/216/184 179/199/170 178/198/169 205/229/196
f 205/229/196 178/198/169 174/193/165 206/230/197
f 202/226/193 205/229/196 206/230/197 203/227/194
f 203/227/194 206/230/197 207/231/198 208/232/199
f 206/230/197 174/193/165 173/192/164 207/231/198
f 207/231/198 173/192/164 159/175/150 158/174/149
f 208/232/199 207/231/198 158/174/149 154/169/145
f 134/147/125 204/228/195 209/233/200 138/151/129
f 204/228/195 203/227/194 208/232/199 209/233/200
f 209/233/200 208/232/199 154/169/145 153/168/144
f 138/151/129 209/233/200 153/168/144 139/152/130
f 185/207/176 187/209/178 210/234/201 183/203/174
f 187/209/178 191/213/182 211/235/202 210/234/201
f 210/234/201 211/235/202 212/236/203 213/237/204
f 183/203/174 210/234/201 213/237/204 171/189/162
f 191/213/182 200/224/191 214/238/205 211/235/202
f 200/224/191 121/134/112 124/137/115 214/238/205
f 214/238/205 124/137/115 129/142/120 215/239/206
f 211/235/202 214/238/205 215/239/206 212/236/203
f 212/236/203 215/239/206 216/240/207 217/241/208
f 215/239/206 129/142/120 143/156/134 216/240/207
f 216/240/207 143/156/134 145/158/136 147/160/138
f 217/241/208 216/240/207 147/160/138 151/164/142
f 171/189/162 213/237/204 218/242/209 167/185/158
f 213/237/204 212/236/203 217/241/208 218/242/209
f 218/242/209 217/241/208 151/164/142 163/179/154
f 167/185/158 218/242/209 163/179/154 165/183/156
o aquarium_ground_mesh
v 22.348886 0.793801 -12.494799
v 20.717785 0.748370 -12.494799
v 20.791210 0.820920 -11.151491
v 22.348886 0.901080 -11.133720
v 17.285240 0.809929 -12.494799
v 17.381582 1.088133 -10.832691
v 13.971950 0.945611 -10.867245
v 13.878094 1.040113 -12.494799
v 10.562319 0.791400 -11.052812
v 10.481801 0.935254 -12.494799
v 7.047359 1.048296 -12.494798
v 7.152689 0.897026 -10.707624
v 3.743059 0.921848 -10.972699
v 3.656784 0.725731 -12.494798
v 0.333428 0.856072 -10.831429
v 0.237000 0.768997 -12.494798
v -3.076200 0.841920 -11.093838
v -3.153768 1.016789 -12.494800
v -6.588686 1.164332 -12.494800
v -6.485832 0.735014 -10.742059
v -9.895462 0.850149 -10.702156
v -10.001182 1.022331 -12.494798
v -13.305092 0.766321 -10.798108
v -13.403915 1.052724 -12.494800
v -16.714722 0.784933 -11.258972
v -16.780418 0.808769 -12.494800
v -20.229015 0.912324 -12.494800
v -20.124348 0.980384 -10.716845
v -23.533979 0.844868 -11.315045
v -23.595648 0.908595 -12.494798
v -24.591324 0.912556 -12.494798
v -24.591324 0.876134 -11.243309
v 20.590139 1.222710 -8.887933
v 22.348886 1.075044 -8.867783
v 17.180508 0.968770 -8.569127
v 13.770878 0.819173 -8.603683
v 10.361248 0.715443 -8.789253
v 6.951617 1.247853 -8.444066
v 3.541986 0.997702 -8.709142
v 0.132357 1.074378 -8.567869
v -3.277273 1.164697 -8.830278
v -6.686903 1.051680 -8.478498
v -10.096534 0.638309 -8.438598
v -13.506163 1.043473 -8.534548
v -16.915792 1.156172 -8.995414
v -20.325422 0.837314 -8.453285
v -23.735052 1.237623 -9.051483
v -24.589567 1.226171 -8.995255
v 20.642904 1.051719 -6.624374
v 22.348886 1.009186 -6.604845
v 17.233274 0.787400 -6.305570
v 13.823645 0.895632 -6.340125
v 10.414014 1.105602 -6.525692
v 7.004384 1.136791 -6.180504
v 3.594754 1.013321 -6.445580
v 0.185124 1.068695 -6.304308
v -3.224506 0.635185 -6.566720
v -6.634136 1.031640 -6.214938
v -10.043765 0.703585 -6.175035
v -13.453396 0.595142 -6.270988
v -16.863024 0.640096 -6.731852
v -20.272654 0.777516 -6.189723
v -23.682287 0.958163 -6.787925
v -24.589567 0.939587 -6.727626
v 20.812563 1.081954 -4.360813
v 22.348886 0.983238 -4.343292
v 17.402929 1.180345 -4.042010
v 13.993300 0.959205 -4.076566
v 10.583668 1.016357 -4.262132
v 7.174037 0.752931 -3.916945
v 3.764407 1.042594 -4.182020
v 0.354778 0.972076 -4.040749
v -3.054852 0.813340 -4.303160
v -6.464482 1.079879 -3.951379
v -9.874111 0.952152 -3.911476
v -13.283740 1.181278 -4.007429
v -16.693369 1.373877 -4.468293
v -20.103001 0.576845 -3.926164
v -23.512630 0.809875 -4.524365
v -24.589567 0.761792 -4.450984
v 20.581726 1.028061 -2.097253
v 22.348886 1.019766 -2.077002
v 17.172096 0.847629 -1.778449
v 13.762465 0.891262 -1.813005
v 10.352835 0.560683 -1.998572
v 6.943207 0.927576 -1.653386
v 3.533576 1.300990 -1.918460
v 0.123945 0.730904 -1.777189
v -3.285683 1.161590 -2.039599
v -6.695315 0.838838 -1.687818
v -10.104943 1.079215 -1.647917
v -13.514572 0.659200 -1.743868
v -16.924202 0.946542 -2.204733
v -20.333832 0.820614 -1.662605
v -23.743464 0.996662 -2.260804
v -24.589567 0.995093 -2.205227
v 17.141899 1.357776 0.485111
v 20.551531 0.787489 0.166306
v 13.732269 1.133641 0.450555
v 10.322639 1.080858 0.264987
v 6.913009 0.648457 0.610175
v 3.503377 1.088105 0.345101
v 0.093747 0.779360 0.486371
v -3.315883 0.590786 0.223961
v -6.725513 0.949408 0.575742
v -10.135140 0.732334 0.615645
v -13.544771 0.626938 0.519692
v -16.954401 0.966887 0.058826
v -20.364033 1.042000 0.600956
v -23.773659 1.082727 0.002755
v -24.589567 1.058671 0.056004
v 22.348886 0.998744 0.186915
v 20.787170 0.939588 2.429866
v 22.348886 0.920261 2.447690
v 17.377541 0.838659 2.748670
v 13.967910 0.996067 2.714116
v 10.558278 0.984994 2.528548
v 7.148646 1.202275 2.873735
v 3.739019 1.108280 2.608660
v 0.329389 0.397507 2.749932
v -3.080241 1.113543 2.487520
v -6.489870 0.828861 2.839303
v -9.899501 0.820937 2.879204
v -13.309129 1.087919 2.783252
v -16.718760 0.889949 2.322388
v -20.128386 1.088359 2.864515
v -23.538023 0.825935 2.266315
v -24.589567 0.855715 2.337739
v 20.690550 0.545592 4.693427
v 22.348886 0.654487 4.712391
v 17.280916 1.135691 5.012232
v 13.871285 0.793293 4.977676
v 10.461655 0.922383 4.792109
v 7.052024 0.951626 5.137295
v 3.642395 1.057587 4.872220
v 0.232765 0.975459 5.013492
v -3.176864 0.736440 4.751081
v -6.586493 0.150739 5.102863
v -9.996126 1.234591 5.142764
v -13.405753 0.674633 5.046812
v -16.815384 1.185445 4.585947
v -20.225016 0.899145 5.128077
v -23.634645 0.792127 4.529876
v -24.591337 0.810677 4.593845
v 20.699984 0.800921 6.956987
v 22.348886 0.910870 6.975840
v 17.290352 0.994843 7.275791
v 13.880724 0.864990 7.241236
v 10.471091 1.259378 7.055668
v 7.061463 0.746779 7.400856
v 3.651832 0.408581 7.135780
v 0.242202 1.275768 7.277051
v -3.167427 0.672606 7.014642
v -6.577057 0.709591 7.366422
v -9.986688 0.648622 7.406322
v -13.396316 1.254600 7.310372
v -16.805944 1.052501 6.849506
v -20.215578 0.747723 7.391636
v -23.625208 0.951419 6.793436
v -24.591337 0.923089 6.858134
v 20.572863 1.264843 9.220547
v 22.348886 1.008428 9.240903
v 17.163233 0.814005 9.539351
v 13.753604 1.119009 9.504796
v 10.343974 0.787325 9.319227
v 6.934340 0.806873 9.664414
v 3.524712 0.732716 9.399342
v 0.115082 0.900150 9.540609
v -3.294547 1.227713 9.278202
v -6.704176 0.746109 9.629984
v -10.113807 0.800179 9.669886
v -13.523438 1.233010 9.573933
v -16.933067 0.852496 9.113068
v -20.342699 0.899769 9.655196
v -23.752327 1.183805 9.056995
v -24.589567 1.112633 9.111889
v 17.414822 1.124209 11.802908
v 20.824451 1.054124 11.484107
v 14.005193 0.989915 11.768356
v 10.595561 1.017511 11.582788
v 7.185928 1.015197 11.927974
v 3.776299 0.624025 11.662901
v 0.366669 1.219251 11.804172
v -3.042959 0.405142 11.541761
v -6.452591 0.993619 11.893544
v -9.862220 0.976614 11.933445
v -13.271849 0.622289 11.837493
v -16.681479 1.066292 11.376629
v -20.091110 0.923671 11.918756
v -23.500738 0.969330 11.320556
v -24.589565 0.975403 11.394854
v 20.646170 1.051619 12.540947
v 22.348886 0.977957 12.540953
v 22.348886 1.011585 11.501486
v 13.866369 1.097311 12.540953
v 17.280802 1.021366 12.540953
v 10.430978 0.825246 12.540953
v 3.622838 0.785467 12.540947
v 7.069269 0.854783 12.540953
v 0.232819 1.060749 12.540955
v -3.213239 0.756268 12.540953
v -9.978124 1.000248 12.540947
v -6.574033 0.941350 12.540955
v -13.401075 0.846534 12.540962
v -16.874687 0.926308 12.540955
v -23.701729 1.078277 12.540950
v -20.209055 0.989415 12.540955
v -24.589565 1.020302 12.540955
v 20.603100 0.020844 12.541113
v 22.356621 0.021838 12.541599
v 13.931640 0.019865 12.541730
v 17.265244 0.021165 12.539067
v 10.512497 0.023459 12.546542
v 3.479123 0.023700 12.541368
v 7.060362 0.023098 12.541121
v 0.228372 0.019143 12.539146
v -3.111930 0.023089 12.531268
v -9.949585 0.021012 12.536301
v -6.634199 0.021670 12.535736
v -13.378921 0.023025 12.538671
v -16.924505 0.022367 12.544726
v -23.641047 0.020379 12.539033
v -20.262089 0.021558 12.541510
v -24.601990 0.021172 12.539747
vt 0.949792 0.982532
vt 0.916931 0.982792
vt 0.918226 0.949392
vt 0.949743 0.948704
vt 0.851735 0.982822
vt 0.853426 0.941891
vt 0.788532 0.943119
vt 0.786741 0.982988
vt 0.723572 0.947254
vt 0.722021 0.982990
vt 0.656545 0.982975
vt 0.658600 0.939469
vt 0.593485 0.945460
vt 0.591644 0.983185
vt 0.528380 0.942461
vt 0.526630 0.983085
vt 0.463426 0.948620
vt 0.461975 0.983550
vt 0.396588 0.984114
vt 0.398630 0.940666
vt 0.333666 0.939823
vt 0.331636 0.983515
vt 0.268611 0.942186
vt 0.266877 0.983958
vt 0.203832 0.952476
vt 0.202307 0.983502
vt 0.136611 0.982679
vt 0.138834 0.939395
vt 0.073834 0.952891
vt 0.072631 0.982661
vt 0.050321 0.982548
vt 0.050282 0.951268
vt 0.914043 0.898509
vt 0.949425 0.898025
vt 0.849275 0.891639
vt 0.784427 0.892691
vt 0.719828 0.897224
vt 0.654569 0.888738
vt 0.589575 0.894951
vt 0.524379 0.891798
vt 0.459650 0.898041
vt 0.394929 0.889956
vt 0.329259 0.889256
vt 0.264196 0.891958
vt 0.200123 0.901877
vt 0.135451 0.888586
vt 0.069975 0.901841
vt 0.050269 0.900516
vt 0.914898 0.848172
vt 0.949300 0.847564
vt 0.850052 0.841418
vt 0.785390 0.842376
vt 0.720393 0.846597
vt 0.655626 0.838724
vt 0.590588 0.844598
vt 0.525557 0.841501
vt 0.460558 0.847282
vt 0.395621 0.839691
vt 0.330259 0.839027
vt 0.265641 0.841399
vt 0.201406 0.851028
vt 0.136807 0.837865
vt 0.071465 0.851125
vt 0.050718 0.849632
vt 0.917831 0.797800
vt 0.949060 0.797252
vt 0.853308 0.790750
vt 0.788545 0.791874
vt 0.723798 0.796443
vt 0.659093 0.787889
vt 0.593896 0.794144
vt 0.528540 0.790959
vt 0.463700 0.797648
vt 0.398913 0.789402
vt 0.333784 0.788300
vt 0.268681 0.789747
vt 0.204875 0.799404
vt 0.139381 0.787368
vt 0.074748 0.800582
vt 0.050755 0.798948
vt 0.913156 0.747446
vt 0.948665 0.746769
vt 0.848452 0.740223
vt 0.783697 0.741282
vt 0.719014 0.745707
vt 0.654402 0.737474
vt 0.589323 0.743597
vt 0.523693 0.740274
vt 0.459035 0.747547
vt 0.394530 0.738665
vt 0.329392 0.737630
vt 0.264352 0.738556
vt 0.199904 0.749134
vt 0.135234 0.737104
vt 0.070391 0.750043
vt 0.050835 0.748762
vt 0.847212 0.689288
vt 0.912120 0.696873
vt 0.783044 0.690459
vt 0.718458 0.694651
vt 0.653733 0.687168
vt 0.588623 0.693109
vt 0.523119 0.689893
vt 0.458611 0.696688
vt 0.393902 0.688150
vt 0.328779 0.686509
vt 0.264170 0.688782
vt 0.199375 0.698946
vt 0.134906 0.686532
vt 0.070167 0.699617
vt 0.051155 0.698305
vt 0.948435 0.696102
vt 0.916021 0.646330
vt 0.947575 0.645524
vt 0.851861 0.638315
vt 0.787311 0.639618
vt 0.722424 0.644028
vt 0.657858 0.635938
vt 0.593504 0.642486
vt 0.527675 0.639188
vt 0.462614 0.645818
vt 0.398576 0.637770
vt 0.333832 0.635638
vt 0.268686 0.637527
vt 0.204266 0.648582
vt 0.139851 0.636126
vt 0.075071 0.648824
vt 0.051653 0.647015
vt 0.914136 0.595825
vt 0.947041 0.595216
vt 0.849409 0.588333
vt 0.785003 0.589240
vt 0.720569 0.593665
vt 0.655975 0.585465
vt 0.591257 0.592272
vt 0.526446 0.587840
vt 0.461367 0.595250
vt 0.396995 0.586815
vt 0.330299 0.584905
vt 0.266295 0.587530
vt 0.202368 0.598213
vt 0.138041 0.586023
vt 0.073909 0.598683
vt 0.052582 0.596937
vt 0.914081 0.546199
vt 0.946990 0.545481
vt 0.849848 0.538752
vt 0.785284 0.539389
vt 0.720739 0.543634
vt 0.655934 0.534972
vt 0.591606 0.540817
vt 0.525509 0.537646
vt 0.460615 0.545559
vt 0.396185 0.536309
vt 0.332010 0.534142
vt 0.267117 0.537235
vt 0.202843 0.548350
vt 0.138244 0.536145
vt 0.074340 0.549138
vt 0.052913 0.547812
vt 0.911507 0.495980
vt 0.946782 0.495886
vt 0.847367 0.488669
vt 0.783126 0.488946
vt 0.718451 0.492692
vt 0.653696 0.484652
vt 0.588572 0.490346
vt 0.523478 0.486992
vt 0.459378 0.494635
vt 0.394460 0.485367
vt 0.329245 0.484152
vt 0.264246 0.487517
vt 0.199784 0.497965
vt 0.135485 0.486274
vt 0.071448 0.499771
vt 0.052299 0.498557
vt 0.852595 0.438656
vt 0.916216 0.446714
vt 0.788534 0.439597
vt 0.723850 0.442129
vt 0.658992 0.434237
vt 0.593779 0.439846
vt 0.528897 0.437529
vt 0.463643 0.442520
vt 0.398524 0.434757
vt 0.334205 0.434160
vt 0.269564 0.436241
vt 0.204612 0.447909
vt 0.139823 0.436493
vt 0.076291 0.450422
vt 0.052584 0.448696
vt 0.913187 0.423615
vt 0.946718 0.423522
vt 0.946550 0.446413
vt 0.786107 0.422533
vt 0.850178 0.422136
vt 0.720966 0.419900
vt 0.590444 0.419741
vt 0.656578 0.420151
vt 0.526106 0.421417
vt 0.460608 0.418833
vt 0.332028 0.420640
vt 0.396072 0.420281
vt 0.266751 0.419769
vt 0.200458 0.421829
vt 0.072400 0.423824
vt 0.137360 0.422613
vt 0.052480 0.423631
vt 0.913002 0.400955
vt 0.947760 0.402748
vt 0.786990 0.398796
vt 0.850224 0.399827
vt 0.722166 0.401719
vt 0.588056 0.402326
vt 0.656322 0.401502
vt 0.526063 0.398502
vt 0.462395 0.402121
vt 0.332360 0.398704
vt 0.395478 0.399712
vt 0.266791 0.401192
vt 0.199533 0.401644
vt 0.073275 0.400798
vt 0.136559 0.401134
vt 0.051553 0.401490
vn -0.038900 0.997100 -0.065200
vn 0.003000 0.995700 -0.092700
vn 0.005500 0.995600 -0.094000
vn -0.008400 0.995400 -0.095600
vn 0.027200 0.995900 -0.086400
vn 0.002000 0.998900 -0.047900
vn -0.027100 0.999300 0.027100
vn -0.014500 0.999800 0.014100
vn 0.007700 0.999000 0.043100
vn -0.000600 0.996400 0.084500
vn -0.004900 0.999300 0.037200
vn 0.017300 0.999700 -0.019500
vn -0.019700 0.997800 -0.064000
vn -0.023500 0.998400 -0.051200
vn 0.011000 0.998000 -0.062900
vn 0.014800 0.999500 -0.028800
vn 0.007800 1.000000 -0.005600
vn 0.024100 0.993600 0.110500
vn 0.005900 0.984200 0.177000
vn -0.020600 0.999000 0.039800
vn -0.003300 0.997900 0.064800
vn -0.006400 0.988900 0.148500
vn 0.010700 0.999700 0.019900
vn -0.025500 0.992600 0.118700
vn 0.003600 0.999800 -0.019300
vn 0.002400 0.999100 0.043200
vn 0.009700 0.999900 -0.008400
vn 0.010400 0.999400 -0.032700
vn 0.010000 0.999200 -0.038500
vn -0.000300 0.999800 0.020900
vn 0.018600 0.999000 0.040700
vn 0.008600 0.997800 -0.065700
vn 0.001000 0.999900 -0.015600
vn 0.038100 0.998600 -0.036400
vn -0.031800 0.999200 0.026100
vn -0.016500 0.999900 0.001100
vn 0.037800 0.998300 -0.044200
vn 0.017700 0.998800 -0.046400
vn -0.015100 0.999200 -0.036900
vn -0.006000 0.999900 -0.013600
vn -0.009300 0.999900 -0.013400
vn -0.035300 0.999300 -0.009500
vn -0.014400 0.999800 0.010800
vn 0.029100 0.998700 0.041700
vn -0.000600 0.999700 0.025200
vn 0.024300 0.999200 0.032000
vn 0.026000 0.999600 -0.011900
vn -0.004900 0.999900 -0.013500
vn -0.001800 0.999900 0.010900
vn 0.048800 0.998500 0.024300
vn -0.030300 0.999200 -0.024400
vn 0.010300 0.999100 -0.041400
vn 0.028800 0.999400 -0.016900
vn 0.004000 0.999300 0.038200
vn -0.006400 0.999600 0.026400
vn -0.032900 0.999100 0.027700
vn 0.001400 0.998900 0.046100
vn -0.008600 1.000000 -0.003600
vn -0.027600 0.998600 -0.045200
vn 0.035600 0.997800 -0.055600
vn -0.014400 0.999900 0.003800
vn -0.001500 0.999300 0.038000
vn 0.020900 0.996100 0.086100
vn -0.019100 0.995100 0.097300
vn 0.010900 0.999900 -0.003600
vn 0.037900 0.999300 0.001500
vn -0.019300 0.999800 -0.001900
vn -0.013400 0.999600 0.023900
vn -0.002400 0.997500 0.070000
vn 0.030100 0.998700 0.040700
vn 0.009500 1.000000 0.000100
vn -0.035400 0.999300 -0.007200
vn 0.007800 0.999600 -0.028000
vn 0.007000 0.999500 -0.029200
vn -0.015000 0.999400 -0.031700
vn 0.024800 0.999000 -0.036000
vn -0.026100 0.998300 -0.052300
vn -0.034700 0.999100 -0.025200
vn 0.017500 0.999800 -0.002500
vn -0.030500 0.999400 -0.014500
vn 0.004100 0.999700 0.025900
vn -0.012900 0.999400 0.031600
vn -0.000400 0.999900 -0.015600
vn -0.036400 0.998700 -0.035900
vn -0.019900 0.999800 -0.008100
vn 0.055900 0.998400 0.006800
vn -0.004400 0.999900 0.010100
vn -0.036900 0.998800 0.031100
vn 0.017100 0.999100 0.039200
vn 0.007400 0.999100 0.042000
vn -0.022800 0.997800 0.062200
vn 0.007800 0.995700 0.092700
vn -0.010000 0.998700 0.050900
vn -0.001800 0.998800 -0.048500
vn 0.016300 0.997300 -0.071800
vn -0.024500 0.997700 -0.062500
vn 0.021500 0.999800 0.001900
vn 0.005100 0.999900 0.014000
vn -0.023500 0.999200 -0.033800
vn -0.029100 0.997200 -0.069600
vn 0.029600 0.998500 -0.046900
vn -0.028300 0.999100 0.032800
vn -0.037000 0.998200 0.048000
vn 0.029500 0.999200 0.026300
vn -0.003600 0.999800 0.017400
vn -0.019100 0.999800 0.002200
vn 0.016700 0.999400 -0.031800
vn 0.036800 0.998800 -0.031900
vn 0.004500 0.999900 -0.011500
vn 0.001300 1.000000 0.008900
vn -0.003400 0.999300 0.036400
vn -0.057200 0.998100 0.021800
vn 0.012900 0.998300 0.056900
vn -0.043100 0.996900 0.065900
vn 0.029900 0.998100 0.053300
vn -0.009100 0.998100 0.060100
vn -0.000300 0.999800 0.021400
vn 0.014100 0.999800 -0.017000
vn -0.047100 0.998500 -0.026600
vn -0.032700 0.999100 -0.026300
vn 0.017200 0.999800 0.007800
vn 0.002600 0.998300 0.057600
vn 0.027600 0.999600 -0.009500
vn 0.014600 0.998900 -0.045200
vn 0.026200 0.999400 -0.023400
vn -0.020300 0.999700 0.016800
vn -0.018100 0.998400 0.054200
vn 0.017800 0.998200 0.057400
vn 0.023200 0.999700 0.008000
vn -0.047300 0.998800 0.015000
vn 0.022000 0.999800 -0.002900
vn 0.000800 0.999900 -0.010200
vn 0.017700 0.999800 0.005700
vn -0.023200 0.997000 0.073700
vn -0.015300 0.998700 0.048100
vn -0.012300 0.999400 -0.033000
vn -0.059400 0.998100 0.013700
vn 0.029200 0.998800 0.040100
vn 0.065300 0.997700 0.016700
vn 0.016800 0.999700 -0.020300
vn 0.002400 1.000000 -0.007800
vn -0.034900 0.999100 0.022200
vn -0.009100 1.000000 0.002600
vn 0.007400 0.999700 -0.022600
vn 0.014700 0.996600 -0.081200
vn -0.009700 0.993100 -0.117100
vn 0.003600 0.999700 -0.023500
vn 0.010400 0.999900 -0.009600
vn -0.011000 0.999900 0.000600
vn -0.059700 0.997400 0.039400
vn 0.039200 0.997900 0.051200
vn 0.030900 0.999500 0.000900
vn -0.082400 0.993200 -0.082800
vn -0.006000 0.997400 -0.071100
vn 0.075800 0.997000 -0.014200
vn 0.029800 0.999400 -0.015800
vn -0.034800 0.999400 0.002800
vn -0.001500 1.000000 -0.005200
vn 0.007300 0.998400 -0.056400
vn -0.036200 0.996300 -0.077900
vn 0.005000 0.999100 -0.041800
vn 0.067100 0.996900 -0.040200
vn -0.010500 0.999400 -0.033900
vn 0.001700 1.000000 -0.006200
vn -0.027400 0.999600 0.007900
vn -0.048000 0.998400 -0.029900
vn 0.040400 0.998600 -0.035500
vn 0.030800 0.999400 0.013600
vn -0.041900 0.999100 0.009700
vn -0.010000 0.999300 -0.035800
vn 0.041900 0.999100 -0.011500
vn 0.017000 0.998500 0.052200
vn -0.040100 0.999000 0.020200
vn 0.018600 0.999700 -0.018500
vn 0.007700 0.999800 -0.019000
vn -0.044300 0.999000 -0.004400
vn -0.008000 1.000000 0.002800
vn 0.021800 0.999400 0.025300
vn -0.013800 0.999900 -0.006900
vn -0.020600 0.999400 0.029000
vn -0.027600 0.999000 0.035700
vn 0.017000 0.999700 -0.017000
vn 0.011500 0.999800 -0.014700
vn -0.034300 0.999400 -0.005500
vn 0.040300 0.998600 -0.033400
vn -0.010900 0.999100 -0.041600
vn 0.001600 0.999800 -0.017700
vn 0.011700 0.999900 0.012400
vn 0.007400 0.999900 -0.014600
vn 0.006100 1.000000 -0.006500
vn -0.028600 0.999600 0.002500
vn 0.014400 0.697500 0.716500
vn 0.024600 0.688000 0.725300
vn 0.062600 0.997600 0.030400
vn -0.016800 0.709400 0.704600
vn -0.000600 0.694100 0.719900
vn -0.005200 0.643800 0.765200
vn 0.028600 0.693400 0.720000
vn -0.021000 0.675700 0.736900
vn -0.022700 0.748200 0.663100
vn -0.010000 0.741000 0.671500
vn -0.027400 0.744500 0.667100
vn 0.036600 0.726600 0.686000
vn 0.009400 0.735400 0.677600
vn 0.021500 0.704500 0.709400
vn -0.002700 0.743100 0.669200
vn 0.007900 0.717400 0.696700
vn -0.020200 0.712400 0.701500
vn -0.000200 -0.000200 1.000000
vn -0.000100 0.000400 1.000000
vn 0.000500 0.001400 1.000000
vn 0.000000 -0.000700 1.000000
vn -0.000100 0.003500 1.000000
vn -0.000200 -0.000300 1.000000
vn -0.000400 0.001900 1.000000
vn -0.000600 -0.003600 1.000000
vn -0.000300 -0.007700 1.000000
vn 0.000200 -0.004500 1.000000
vn 0.000200 -0.007000 1.000000
vn 0.000600 -0.001500 1.000000
vn 0.000200 0.001600 1.000000
vn 0.000000 -0.001100 1.000000
vn -0.000400 0.000800 1.000000
vn 0.000400 -0.001500 1.000000
usemtl lambert2SG
s 1
f 219/243/210 220/244/211 221/245/212 222/246/213
f 220/244/211 223/247/214 224/248/215 221/245/212
f 225/249/216 224/248/215 223/247/214 226/250/217
f 227/251/218 225/249/216 226/250/217 228/252/219
f 228/252/219 229/253/220 230/254/221 227/251/218
f 231/255/222 230/254/221 229/253/220 232/256/223
f 233/257/224 231/255/222 232/256/223 234/258/225
f 235/259/226 233/257/224 234/258/225 236/260/227
f 236/260/227 237/261/228 238/262/229 235/259/226
f 239/263/230 238/262/229 237/261/228 240/264/231
f 241/265/232 239/263/230 240/264/231 242/266/233
f 243/267/234 241/265/232 242/266/233 244/268/235
f 244/268/235 245/269/236 246/270/237 243/267/234
f 247/271/238 246/270/237 245/269/236 248/272/239
f 247/271/238 248/272/239 249/273/240 250/274/241
f 222/246/213 221/245/212 251/275/242 252/276/243
f 253/277/244 251/275/242 221/245/212 224/248/215
f 254/278/245 253/277/244 224/248/215 225/249/216
f 255/279/246 254/278/245 225/249/216 227/251/218
f 256/280/247 255/279/246 227/251/218 230/254/221
f 257/281/248 256/280/247 230/254/221 231/255/222
f 258/282/249 257/281/248 231/255/222 233/257/224
f 259/283/250 258/282/249 233/257/224 235/259/226
f 260/284/251 259/283/250 235/259/226 238/262/229
f 261/285/252 260/284/251 238/262/229 239/263/230
f 262/286/253 261/285/252 239/263/230 241/265/232
f 263/287/254 262/286/253 241/265/232 243/267/234
f 264/288/255 263/287/254 243/267/234 246/270/237
f 265/289/256 264/288/255 246/270/237 247/271/238
f 250/274/241 266/290/257 265/289/256 247/271/238
f 252/276/243 251/275/242 267/291/258 268/292/259
f 269/293/260 267/291/258 251/275/242 253/277/244
f 270/294/261 269/293/260 253/277/244 254/278/245
f 271/295/262 270/294/261 254/278/245 255/279/246
f 272/296/263 271/295/262 255/279/246 256/280/247
f 273/297/264 272/296/263 256/280/247 257/281/248
f 274/298/265 273/297/264 257/281/248 258/282/249
f 275/299/266 274/298/265 258/282/249 259/283/250
f 276/300/267 275/299/266 259/283/250 260/284/251
f 277/301/268 276/300/267 260/284/251 261/285/252
f 278/302/269 277/301/268 261/285/252 262/286/253
f 279/303/270 278/302/269 262/286/253 263/287/254
f 280/304/271 279/303/270 263/287/254 264/288/255
f 281/305/272 280/304/271 264/288/255 265/289/256
f 266/290/257 282/306/273 281/305/272 265/289/256
f 268/292/259 267/291/258 283/307/274 284/308/275
f 285/309/276 283/307/274 267/291/258 269/293/260
f 286/310/277 285/309/276 269/293/260 270/294/261
f 287/311/278 286/310/277 270/294/261 271/295/262
f 288/312/279 287/311/278 271/295/262 272/296/263
f 289/313/280 288/312/279 272/296/263 273/297/264
f 290/314/281 289/313/280 273/297/264 274/298/265
f 291/315/282 290/314/281 274/298/265 275/299/266
f 292/316/283 291/315/282 275/299/266 276/300/267
f 293/317/284 292/316/283 276/300/267 277/301/268
f 294/318/285 293/317/284 277/301/268 278/302/269
f 295/319/286 294/318/285 278/302/269 279/303/270
f 296/320/287 295/319/286 279/303/270 280/304/271
f 297/321/288 296/320/287 280/304/271 281/305/272
f 282/306/273 298/322/289 297/321/288 281/305/272
f 284/308/275 283/307/274 299/323/290 300/324/291
f 301/325/292 299/323/290 283/307/274 285/309/276
f 302/326/293 301/325/292 285/309/276 286/310/277
f 303/327/294 302/326/293 286/310/277 287/311/278
f 304/328/295 303/327/294 287/311/278 288/312/279
f 305/329/296 304/328/295 288/312/279 289/313/280
f 306/330/297 305/329/296 289/313/280 290/314/281
f 307/331/298 306/330/297 290/314/281 291/315/282
f 308/332/299 307/331/298 291/315/282 292/316/283
f 309/333/300 308/332/299 292/316/283 293/317/284
f 310/334/301 309/333/300 293/317/284 294/318/285
f 311/335/302 310/334/301 294/318/285 295/319/286
f 312/336/303 311/335/302 295/319/286 296/320/287
f 313/337/304 312/336/303 296/320/287 297/321/288
f 298/322/289 314/338/305 313/337/304 297/321/288
f 315/339/306 316/340/307 299/323/290 301/325/292
f 317/341/308 315/339/306 301/325/292 302/326/293
f 318/342/309 317/341/308 302/326/293 303/327/294
f 319/343/310 318/342/309 303/327/294 304/328/295
f 320/344/311 319/343/310 304/328/295 305/329/296
f 321/345/312 320/344/311 305/329/296 306/330/297
f 322/346/313 321/345/312 306/330/297 307/331/298
f 323/347/314 322/346/313 307/331/298 308/332/299
f 324/348/315 323/347/314 308/332/299 309/333/300
f 325/349/316 324/348/315 309/333/300 310/334/301
f 326/350/317 325/349/316 310/334/301 311/335/302
f 327/351/318 326/350/317 311/335/302 312/336/303
f 328/352/319 327/351/318 312/336/303 313/337/304
f 314/338/305 329/353/320 328/352/319 313/337/304
f 330/354/321 316/340/307 331/355/322 332/356/323
f 333/357/324 331/355/322 316/340/307 315/339/306
f 334/358/325 333/357/324 315/339/306 317/341/308
f 335/359/326 334/358/325 317/341/308 318/342/309
f 336/360/327 335/359/326 318/342/309 319/343/310
f 337/361/328 336/360/327 319/343/310 320/344/311
f 338/362/329 337/361/328 320/344/311 321/345/312
f 339/363/330 338/362/329 321/345/312 322/346/313
f 340/364/331 339/363/330 322/346/313 323/347/314
f 341/365/332 340/364/331 323/347/314 324/348/315
f 342/366/333 341/365/332 324/348/315 325/349/316
f 343/367/334 342/366/333 325/349/316 326/350/317
f 344/368/335 343/367/334 326/350/317 327/351/318
f 345/369/336 344/368/335 327/351/318 328/352/319
f 329/353/320 346/370/337 345/369/336 328/352/319
f 332/356/323 331/355/322 347/371/338 348/372/339
f 349/373/340 347/371/338 331/355/322 333/357/324
f 350/374/341 349/373/340 333/357/324 334/358/325
f 351/375/342 350/374/341 334/358/325 335/359/326
f 352/376/343 351/375/342 335/359/326 336/360/327
f 353/377/344 352/376/343 336/360/327 337/361/328
f 354/378/345 353/377/344 337/361/328 338/362/329
f 355/379/346 354/378/345 338/362/329 339/363/330
f 356/380/347 355/379/346 339/363/330 340/364/331
f 357/381/348 356/380/347 340/364/331 341/365/332
f 358/382/349 357/381/348 341/365/332 342/366/333
f 359/383/350 358/382/349 342/366/333 343/367/334
f 360/384/351 359/383/350 343/367/334 344/368/335
f 361/385/352 360/384/351 344/368/335 345/369/336
f 346/370/337 362/386/353 361/385/352 345/369/336
f 348/372/339 347/371/338 363/387/354 364/388/355
f 365/389/356 363/387/354 347/371/338 349/373/340
f 366/390/357 365/389/356 349/373/340 350/374/341
f 367/391/358 366/390/357 350/374/341 351/375/342
f 368/392/359 367/391/358 351/375/342 352/376/343
f 369/393/360 368/392/359 352/376/343 353/377/344
f 370/394/361 369/393/360 353/377/344 354/378/345
f 371/395/362 370/394/361 354/378/345 355/379/346
f 372/396/363 371/395/362 355/379/346 356/380/347
f 373/397/364 372/396/363 356/380/347 357/381/348
f 374/398/365 373/397/364 357/381/348 358/382/349
f 375/399/366 374/398/365 358/382/349 359/383/350
f 376/400/367 375/399/366 359/383/350 360/384/351
f 377/401/368 376/400/367 360/384/351 361/385/352
f 362/386/353 378/402/369 377/401/368 361/385/352
f 364/388/355 363/387/354 379/403/370 380/404/371
f 381/405/372 379/403/370 363/387/354 365/389/356
f 382/406/373 381/405/372 365/389/356 366/390/357
f 383/407/374 382/406/373 366/390/357 367/391/358
f 384/408/375 383/407/374 367/391/358 368/392/359
f 385/409/376 384/408/375 368/392/359 369/393/360
f 386/410/377 385/409/376 369/393/360 370/394/361
f 387/411/378 386/410/377 370/394/361 371/395/362
f 388/412/379 387/411/378 371/395/362 372/396/363
f 389/413/380 388/412/379 372/396/363 373/397/364
f 390/414/381 389/413/380 373/397/364 374/398/365
f 391/415/382 390/414/381 374/398/365 375/399/366
f 392/416/383 391/415/382 375/399/366 376/400/367
f 393/417/384 392/416/383 376/400/367 377/401/368
f 378/402/369 394/418/385 393/417/384 377/401/368
f 395/419/386 396/420/387 379/403/370 381/405/372
f 397/421/388 395/419/386 381/405/372 382/406/373
f 398/422/389 397/421/388 382/406/373 383/407/374
f 399/423/390 398/422/389 383/407/374 384/408/375
f 400/424/391 399/423/390 384/408/375 385/409/376
f 401/425/392 400/424/391 385/409/376 386/410/377
f 402/426/393 401/425/392 386/410/377 387/411/378
f 403/427/394 402/426/393 387/411/378 388/412/379
f 404/428/395 403/427/394 388/412/379 389/413/380
f 405/429/396 404/428/395 389/413/380 390/414/381
f 406/430/397 405/429/396 390/414/381 391/415/382
f 407/431/398 406/430/397 391/415/382 392/416/383
f 408/432/399 407/431/398 392/416/383 393/417/384
f 394/418/385 409/433/400 408/432/399 393/417/384
f 396/420/387 410/434/401 411/435/402 412/436/403
f 397/421/388 413/437/404 414/438/405 395/419/386
f 413/437/404 397/421/388 398/422/389 415/439/406
f 400/424/391 416/440/407 417/441/408 399/423/390
f 416/440/407 400/424/391 401/425/392 418/442/409
f 418/442/409 401/425/392 402/426/393 419/443/410
f 404/428/395 420/444/411 421/445/412 403/427/394
f 420/444/411 404/428/395 405/429/396 422/446/413
f 422/446/413 405/429/396 406/430/397 423/447/414
f 408/432/399 424/448/415 425/449/416 407/431/398
f 414/438/405 410/434/401 396/420/387 395/419/386
f 417/441/408 415/439/406 398/422/389 399/423/390
f 421/445/412 419/443/410 402/426/393 403/427/394
f 425/449/416 423/447/414 406/430/397 407/431/398
f 409/433/400 426/450/417 424/448/415 408/432/399
f 300/324/291 299/323/290 316/340/307 330/354/321
f 412/436/403 380/404/371 379/403/370 396/420/387
f 411/435/402 410/434/401 427/451/418 428/452/419
f 414/438/405 413/437/404 429/453/420 430/454/421
f 413/437/404 415/439/406 431/455/422 429/453/420
f 417/441/408 416/440/407 432/456/423 433/457/424
f 416/440/407 418/442/409 434/458/425 432/456/423
f 418/442/409 419/443/410 435/459/426 434/458/425
f 421/445/412 420/444/411 436/460/427 437/461/428
f 420/444/411 422/446/413 438/462/429 436/460/427
f 422/446/413 423/447/414 439/463/430 438/462/429
f 425/449/416 424/448/415 440/464/431 441/465/432
f 410/434/401 414/438/405 430/454/421 427/451/418
f 415/439/406 417/441/408 433/457/424 431/455/422
f 419/443/410 421/445/412 437/461/428 435/459/426
f 423/447/414 425/449/416 441/465/432 439/463/430
f 424/448/415 426/450/417 442/466/433 440/464/431
